%!PS-Adobe-2.0
%%Creator: gnuplot
%%DocumentFonts: Helvetica
%%BoundingBox: 50 50 518 604
%%Pages: (atend)
%%EndComments
/gnudict 40 dict def
gnudict begin
/Color true def
/Solid false def
/gnulinewidth 5.000 def
/vshift -46 def
/dl {10 mul} def
/hpt 31.5 def
/vpt 31.5 def
/M {moveto} bind def
/L {lineto} bind def
/R {rmoveto} bind def
/V {rlineto} bind def
/vpt2 vpt 2 mul def
/hpt2 hpt 2 mul def
/Lshow { currentpoint stroke M
  0 vshift R show } def
/Rshow { currentpoint stroke M
  dup stringwidth pop neg vshift R show } def
/Cshow { currentpoint stroke M
  dup stringwidth pop -2 div vshift R show } def
/DL { Color {setrgbcolor Solid {pop []} if 0 setdash }
 {pop pop pop Solid {pop []} if 0 setdash} ifelse } def
/BL { stroke gnulinewidth 2 mul setlinewidth } def
/AL { stroke gnulinewidth 2 div setlinewidth } def
/PL { stroke gnulinewidth setlinewidth } def
/LTb { BL [] 0 0 0 DL } def
/LTa { AL [1 dl 2 dl] 0 setdash 0 0 0 setrgbcolor } def
/LT0 { PL [] 0 1 0 DL } def
/LT1 { PL [4 dl 2 dl] 0 0 1 DL } def
/LT2 { PL [2 dl 3 dl] 1 0 0 DL } def
/LT3 { PL [1 dl 1.5 dl] 1 0 1 DL } def
/LT4 { PL [5 dl 2 dl 1 dl 2 dl] 0 1 1 DL } def
/LT5 { PL [4 dl 3 dl 1 dl 3 dl] 1 1 0 DL } def
/LT6 { PL [2 dl 2 dl 2 dl 4 dl] 0 0 0 DL } def
/LT7 { PL [2 dl 2 dl 2 dl 2 dl 2 dl 4 dl] 1 0.3 0 DL } def
/LT8 { PL [2 dl 2 dl 2 dl 2 dl 2 dl 2 dl 2 dl 4 dl] 0.5 0.5 0.5 DL } def
/P { stroke [] 0 setdash
  currentlinewidth 2 div sub M
  0 currentlinewidth V stroke } def
/D { stroke [] 0 setdash 2 copy vpt add M
  hpt neg vpt neg V hpt vpt neg V
  hpt vpt V hpt neg vpt V closepath stroke
  P } def
/A { stroke [] 0 setdash vpt sub M 0 vpt2 V
  currentpoint stroke M
  hpt neg vpt neg R hpt2 0 V stroke
  } def
/B { stroke [] 0 setdash 2 copy exch hpt sub exch vpt add M
  0 vpt2 neg V hpt2 0 V 0 vpt2 V
  hpt2 neg 0 V closepath stroke
  P } def
/C { stroke [] 0 setdash exch hpt sub exch vpt add M
  hpt2 vpt2 neg V currentpoint stroke M
  hpt2 neg 0 R hpt2 vpt2 V stroke } def
/T { stroke [] 0 setdash 2 copy vpt 1.12 mul add M
  hpt neg vpt -1.62 mul V
  hpt 2 mul 0 V
  hpt neg vpt 1.62 mul V closepath stroke
  P  } def
/S { 2 copy A C} def
end
%%EndProlog
%%Page: 1 1
gnudict begin
gsave
50 50 translate
0.100 0.100 scale
0 setgray
/Helvetica findfont 140 scalefont setfont
newpath
LTa
672 211 M
3776 0 V
672 211 M
0 5262 V
LTb
672 211 M
63 0 V
3713 0 R
-63 0 V
588 211 M
(0) Rshow
672 796 M
63 0 V
3713 0 R
-63 0 V
588 796 M
(0.05) Rshow
672 1380 M
63 0 V
3713 0 R
-63 0 V
-3797 0 R
(0.1) Rshow
672 1965 M
63 0 V
3713 0 R
-63 0 V
-3797 0 R
(0.15) Rshow
672 2550 M
63 0 V
3713 0 R
-63 0 V
-3797 0 R
(0.2) Rshow
672 3134 M
63 0 V
3713 0 R
-63 0 V
-3797 0 R
(0.25) Rshow
672 3719 M
63 0 V
3713 0 R
-63 0 V
-3797 0 R
(0.3) Rshow
672 4304 M
63 0 V
3713 0 R
-63 0 V
-3797 0 R
(0.35) Rshow
672 4888 M
63 0 V
3713 0 R
-63 0 V
-3797 0 R
(0.4) Rshow
672 5473 M
63 0 V
3713 0 R
-63 0 V
-3797 0 R
(0.45) Rshow
672 211 M
0 63 V
0 5199 R
0 -63 V
672 71 M
(0) Cshow
1092 211 M
0 63 V
0 5199 R
0 -63 V
1092 71 M
(50) Cshow
1511 211 M
0 63 V
0 5199 R
0 -63 V
1511 71 M
(100) Cshow
1931 211 M
0 63 V
0 5199 R
0 -63 V
1931 71 M
(150) Cshow
2350 211 M
0 63 V
0 5199 R
0 -63 V
2350 71 M
(200) Cshow
2770 211 M
0 63 V
0 5199 R
0 -63 V
2770 71 M
(250) Cshow
3189 211 M
0 63 V
0 5199 R
0 -63 V
3189 71 M
(300) Cshow
3609 211 M
0 63 V
0 5199 R
0 -63 V
3609 71 M
(350) Cshow
4028 211 M
0 63 V
0 5199 R
0 -63 V
4028 71 M
(400) Cshow
4448 211 M
0 63 V
0 5199 R
0 -63 V
4448 71 M
(450) Cshow
LT0
3965 5270 M
(antico) Rshow
4049 5270 M
252 0 V
672 951 M
8 6 V
9 6 V
8 7 V
9 6 V
8 6 V
8 7 V
9 6 V
8 7 V
9 6 V
8 7 V
8 7 V
9 7 V
8 6 V
8 7 V
9 7 V
8 7 V
9 7 V
8 7 V
8 8 V
9 7 V
8 7 V
9 7 V
8 8 V
8 7 V
9 8 V
8 7 V
9 8 V
8 8 V
8 8 V
9 7 V
8 8 V
9 8 V
8 8 V
8 9 V
9 8 V
8 8 V
8 8 V
9 9 V
8 8 V
9 9 V
8 8 V
8 9 V
9 9 V
8 9 V
9 9 V
8 9 V
8 9 V
9 9 V
8 9 V
9 9 V
8 10 V
8 9 V
9 10 V
8 9 V
9 10 V
8 10 V
8 9 V
9 10 V
8 10 V
8 10 V
9 11 V
8 10 V
9 10 V
8 11 V
8 10 V
9 11 V
8 10 V
9 11 V
8 11 V
8 11 V
9 11 V
8 11 V
9 12 V
8 11 V
8 11 V
9 12 V
8 11 V
9 12 V
8 12 V
8 12 V
9 12 V
8 12 V
8 12 V
9 13 V
8 12 V
9 12 V
8 13 V
8 13 V
9 13 V
8 13 V
9 13 V
8 13 V
8 13 V
9 13 V
8 14 V
9 14 V
8 13 V
8 14 V
9 14 V
8 14 V
9 14 V
8 15 V
8 14 V
9 15 V
8 14 V
8 15 V
9 15 V
8 15 V
9 15 V
8 15 V
8 16 V
9 15 V
8 16 V
9 16 V
8 16 V
8 16 V
9 16 V
8 16 V
9 17 V
8 17 V
8 16 V
9 17 V
8 17 V
8 17 V
9 -65 V
8 -64 V
9 -61 V
8 -60 V
8 -57 V
9 -56 V
8 -54 V
9 -53 V
8 -50 V
8 -49 V
9 -48 V
8 -46 V
9 -44 V
8 -44 V
8 -41 V
9 -41 V
8 -39 V
9 -38 V
8 -37 V
8 -36 V
9 -34 V
8 -33 V
8 -33 V
9 -31 V
8 -30 V
9 -30 V
8 -28 V
8 -28 V
9 -26 V
8 -26 V
9 -25 V
8 -25 V
8 -23 V
9 -23 V
8 -22 V
9 -21 V
8 -21 V
8 -20 V
9 -19 V
8 -19 V
9 -18 V
8 -17 V
8 -17 V
9 -17 V
8 -16 V
8 -15 V
9 -15 V
8 -15 V
9 -14 V
8 -13 V
8 -14 V
9 -12 V
8 -13 V
9 -12 V
8 -11 V
8 -11 V
9 -11 V
8 -11 V
9 -10 V
8 -10 V
8 -9 V
9 -10 V
8 -9 V
9 -8 V
8 -9 V
8 -8 V
9 -8 V
8 -7 V
8 -8 V
9 -7 V
8 -7 V
9 -6 V
8 -7 V
8 -6 V
9 -6 V
8 -6 V
9 -6 V
8 -5 V
8 -6 V
9 -5 V
8 -5 V
9 -5 V
8 -5 V
8 -4 V
9 -5 V
8 -4 V
9 -4 V
8 -4 V
8 -4 V
9 -4 V
8 -3 V
8 -4 V
9 -3 V
8 -4 V
9 -3 V
8 -3 V
8 -3 V
9 -3 V
8 -3 V
9 -2 V
8 -3 V
8 -3 V
9 -2 V
8 -2 V
9 -3 V
8 -2 V
8 -2 V
9 -2 V
8 -2 V
9 -2 V
8 -2 V
8 -2 V
9 -2 V
8 -2 V
8 -1 V
9 -2 V
8 -2 V
9 -1 V
8 -2 V
8 -1 V
9 -1 V
8 -2 V
9 -1 V
8 -1 V
8 -2 V
9 -1 V
8 -1 V
9 -1 V
8 -1 V
8 -1 V
9 -1 V
8 -1 V
9 -1 V
8 -1 V
8 -1 V
9 -1 V
8 0 V
8 -1 V
9 -1 V
8 -1 V
9 -1 V
8 0 V
8 -1 V
9 -1 V
8 0 V
9 -1 V
8 -1 V
8 0 V
9 -1 V
8 0 V
9 -1 V
8 0 V
8 -1 V
9 0 V
8 -1 V
9 0 V
8 -1 V
8 0 V
9 0 V
8 -1 V
8 0 V
9 -1 V
8 0 V
9 0 V
8 -1 V
8 0 V
9 0 V
8 -1 V
9 0 V
8 0 V
8 0 V
9 -1 V
8 0 V
9 0 V
8 0 V
8 -1 V
9 0 V
8 0 V
9 0 V
8 -1 V
8 0 V
9 0 V
8 0 V
8 0 V
9 -1 V
8 0 V
9 0 V
8 0 V
8 0 V
9 0 V
8 0 V
9 -1 V
8 0 V
8 0 V
9 0 V
8 0 V
9 0 V
8 0 V
8 -1 V
9 0 V
8 0 V
9 0 V
8 0 V
8 0 V
9 0 V
8 0 V
8 0 V
9 0 V
8 0 V
9 -1 V
8 0 V
8 0 V
9 0 V
8 0 V
9 0 V
8 0 V
8 0 V
9 0 V
8 0 V
9 0 V
8 0 V
8 0 V
9 0 V
8 0 V
8 0 V
9 -1 V
8 0 V
9 0 V
8 0 V
8 0 V
9 0 V
8 0 V
9 0 V
8 0 V
8 0 V
9 0 V
8 0 V
9 0 V
8 0 V
8 0 V
9 0 V
8 0 V
9 0 V
8 0 V
8 0 V
9 0 V
8 0 V
8 0 V
9 0 V
8 0 V
9 0 V
8 0 V
8 0 V
9 0 V
8 0 V
9 0 V
8 0 V
8 0 V
9 0 V
8 -1 V
9 0 V
8 0 V
8 0 V
9 0 V
8 0 V
9 0 V
8 0 V
8 0 V
9 0 V
8 0 V
8 0 V
9 0 V
8 0 V
currentpoint stroke M
9 0 V
8 0 V
8 0 V
9 0 V
8 0 V
9 0 V
8 0 V
8 0 V
9 0 V
8 0 V
9 0 V
LT1
3965 5130 M
(armonici) Rshow
4049 5130 M
252 0 V
672 1185 M
8 12 V
9 13 V
8 13 V
9 12 V
8 13 V
8 13 V
9 14 V
8 13 V
9 14 V
8 14 V
8 14 V
9 14 V
8 14 V
8 15 V
9 14 V
8 15 V
9 15 V
8 16 V
8 15 V
9 16 V
8 16 V
9 16 V
8 16 V
8 16 V
9 17 V
8 17 V
9 17 V
8 17 V
8 18 V
9 18 V
8 18 V
9 18 V
8 18 V
8 19 V
9 19 V
8 19 V
8 20 V
9 19 V
8 20 V
9 20 V
8 21 V
8 20 V
9 21 V
8 21 V
9 22 V
8 22 V
8 22 V
9 22 V
8 22 V
9 23 V
8 23 V
8 24 V
9 24 V
8 24 V
9 24 V
8 25 V
8 24 V
9 26 V
8 25 V
8 -65 V
9 -64 V
8 -61 V
9 -60 V
8 -58 V
8 -55 V
9 -54 V
8 -53 V
9 -50 V
8 -49 V
8 -47 V
9 -46 V
8 -45 V
9 -43 V
8 -41 V
8 -41 V
9 -38 V
8 -38 V
9 -37 V
8 -35 V
8 -34 V
9 -33 V
8 -32 V
8 -31 V
9 -30 V
8 -29 V
9 -29 V
8 -27 V
8 -26 V
9 -26 V
8 -24 V
9 -24 V
8 -23 V
8 -23 V
9 -21 V
8 -21 V
9 -21 V
8 -19 V
8 -19 V
9 -19 V
8 -18 V
9 -17 V
8 -16 V
8 -17 V
9 -15 V
8 -15 V
8 -15 V
9 -14 V
8 -14 V
9 -13 V
8 -13 V
8 -13 V
9 -12 V
8 -11 V
9 -12 V
8 -10 V
8 -11 V
9 -10 V
8 -10 V
9 -10 V
8 -9 V
8 -9 V
9 -9 V
8 -8 V
8 -8 V
9 -8 V
8 -8 V
9 -7 V
8 -7 V
8 -7 V
9 -7 V
8 -6 V
9 -7 V
8 -6 V
8 -6 V
9 -5 V
8 -6 V
9 -5 V
8 -5 V
8 -5 V
9 -5 V
8 -5 V
9 -4 V
8 -5 V
8 -4 V
9 -4 V
8 -4 V
8 -4 V
9 -4 V
8 -3 V
9 -4 V
8 -3 V
8 -3 V
9 -4 V
8 -3 V
9 -3 V
8 -2 V
8 -3 V
9 -3 V
8 -3 V
9 -2 V
8 -2 V
8 -3 V
9 -2 V
8 -2 V
9 -2 V
8 -3 V
8 -2 V
9 -1 V
8 -2 V
8 -2 V
9 -2 V
8 -2 V
9 -1 V
8 -2 V
8 -1 V
9 -2 V
8 -1 V
9 -2 V
8 -1 V
8 -1 V
9 -2 V
8 -1 V
9 -1 V
8 -1 V
8 -1 V
9 -1 V
8 -2 V
9 -1 V
8 0 V
8 -1 V
9 -1 V
8 -1 V
8 -1 V
9 -1 V
8 -1 V
9 -1 V
8 0 V
8 -1 V
9 -1 V
8 0 V
9 -1 V
8 -1 V
8 0 V
9 -1 V
8 0 V
9 -1 V
8 -1 V
8 0 V
9 -1 V
8 0 V
9 -1 V
8 0 V
8 -1 V
9 0 V
8 0 V
8 -1 V
9 0 V
8 -1 V
9 0 V
8 0 V
8 -1 V
9 0 V
8 0 V
9 -1 V
8 0 V
8 0 V
9 0 V
8 -1 V
9 0 V
8 0 V
8 0 V
9 -1 V
8 0 V
9 0 V
8 0 V
8 -1 V
9 0 V
8 0 V
8 0 V
9 0 V
8 -1 V
9 0 V
8 0 V
8 0 V
9 0 V
8 0 V
9 -1 V
8 0 V
8 0 V
9 0 V
8 0 V
9 0 V
8 0 V
8 0 V
9 -1 V
8 0 V
9 0 V
8 0 V
8 0 V
9 0 V
8 0 V
8 0 V
9 0 V
8 0 V
9 -1 V
8 0 V
8 0 V
9 0 V
8 0 V
9 0 V
8 0 V
8 0 V
9 0 V
8 0 V
9 0 V
8 0 V
8 0 V
9 0 V
8 0 V
9 0 V
8 -1 V
8 0 V
9 0 V
8 0 V
8 0 V
9 0 V
8 0 V
9 0 V
8 0 V
8 0 V
9 0 V
8 0 V
9 0 V
8 0 V
8 0 V
9 0 V
8 0 V
9 0 V
8 0 V
8 0 V
9 0 V
8 0 V
9 0 V
8 0 V
8 0 V
9 0 V
8 0 V
8 0 V
9 0 V
8 0 V
9 0 V
8 0 V
8 0 V
9 0 V
8 -1 V
9 0 V
8 0 V
8 0 V
9 0 V
8 0 V
9 0 V
8 0 V
8 0 V
9 0 V
8 0 V
9 0 V
8 0 V
8 0 V
9 0 V
8 0 V
8 0 V
9 0 V
8 0 V
9 0 V
8 0 V
8 0 V
9 0 V
8 0 V
9 0 V
8 0 V
8 0 V
9 0 V
8 0 V
9 0 V
8 0 V
8 0 V
9 0 V
8 0 V
8 0 V
9 0 V
8 0 V
9 0 V
8 0 V
8 0 V
9 0 V
8 0 V
9 0 V
8 0 V
8 0 V
9 0 V
8 0 V
9 0 V
8 0 V
8 0 V
9 0 V
8 0 V
9 0 V
8 0 V
8 0 V
9 0 V
8 0 V
8 0 V
9 0 V
8 0 V
9 0 V
8 0 V
8 0 V
9 0 V
8 0 V
9 0 V
8 0 V
8 0 V
9 0 V
8 0 V
9 0 V
8 0 V
8 0 V
9 0 V
8 0 V
9 0 V
8 0 V
8 0 V
9 0 V
8 0 V
8 0 V
9 0 V
8 0 V
currentpoint stroke M
9 0 V
8 0 V
8 0 V
9 0 V
8 0 V
9 0 V
8 0 V
8 0 V
9 0 V
8 0 V
9 0 V
LT2
3965 4990 M
(belcanto) Rshow
4049 4990 M
252 0 V
672 211 M
8 0 V
9 0 V
8 0 V
9 0 V
8 0 V
8 0 V
9 0 V
8 0 V
9 0 V
8 0 V
8 0 V
9 0 V
8 0 V
8 0 V
9 0 V
8 0 V
9 0 V
8 0 V
8 0 V
9 0 V
8 0 V
9 0 V
8 0 V
8 0 V
9 0 V
8 0 V
9 0 V
8 0 V
8 0 V
9 0 V
8 0 V
9 0 V
8 0 V
8 0 V
9 0 V
8 0 V
8 0 V
9 0 V
8 0 V
9 0 V
8 0 V
8 0 V
9 0 V
8 0 V
9 0 V
8 0 V
8 0 V
9 0 V
8 0 V
9 0 V
8 0 V
8 0 V
9 0 V
8 0 V
9 0 V
8 0 V
8 0 V
9 0 V
8 0 V
8 0 V
9 1 V
8 0 V
9 0 V
8 0 V
8 0 V
9 0 V
8 0 V
9 0 V
8 0 V
8 0 V
9 0 V
8 0 V
9 0 V
8 0 V
8 0 V
9 0 V
8 0 V
9 0 V
8 0 V
8 0 V
9 0 V
8 0 V
8 0 V
9 0 V
8 0 V
9 0 V
8 0 V
8 0 V
9 0 V
8 0 V
9 0 V
8 0 V
8 0 V
9 0 V
8 0 V
9 0 V
8 0 V
8 0 V
9 0 V
8 0 V
9 0 V
8 0 V
8 0 V
9 0 V
8 0 V
8 1 V
9 0 V
8 0 V
9 0 V
8 0 V
8 0 V
9 0 V
8 0 V
9 0 V
8 0 V
8 0 V
9 0 V
8 0 V
9 0 V
8 0 V
8 0 V
9 0 V
8 0 V
8 0 V
9 0 V
8 0 V
9 1 V
8 0 V
8 0 V
9 0 V
8 0 V
9 0 V
8 0 V
8 0 V
9 0 V
8 0 V
9 0 V
8 0 V
8 0 V
9 0 V
8 1 V
9 0 V
8 0 V
8 0 V
9 0 V
8 0 V
8 0 V
9 0 V
8 0 V
9 0 V
8 0 V
8 1 V
9 0 V
8 0 V
9 0 V
8 0 V
8 0 V
9 0 V
8 0 V
9 1 V
8 0 V
8 0 V
9 0 V
8 0 V
9 0 V
8 0 V
8 1 V
9 0 V
8 0 V
8 0 V
9 0 V
8 0 V
9 1 V
8 0 V
8 0 V
9 0 V
8 0 V
9 1 V
8 0 V
8 0 V
9 0 V
8 0 V
9 1 V
8 0 V
8 0 V
9 0 V
8 1 V
9 0 V
8 0 V
8 1 V
9 0 V
8 0 V
8 0 V
9 1 V
8 0 V
9 0 V
8 1 V
8 0 V
9 0 V
8 1 V
9 0 V
8 0 V
8 1 V
9 0 V
8 1 V
9 0 V
8 0 V
8 1 V
9 0 V
8 1 V
9 0 V
8 1 V
8 0 V
9 1 V
8 0 V
8 1 V
9 0 V
8 1 V
9 0 V
8 1 V
8 0 V
9 1 V
8 1 V
9 0 V
8 1 V
8 0 V
9 1 V
8 1 V
9 1 V
8 0 V
8 1 V
9 1 V
8 0 V
9 1 V
8 1 V
8 1 V
9 1 V
8 1 V
8 1 V
9 0 V
8 1 V
9 1 V
8 1 V
8 1 V
9 1 V
8 1 V
9 2 V
8 1 V
8 1 V
9 1 V
8 1 V
9 1 V
8 2 V
8 1 V
9 1 V
8 2 V
9 1 V
8 1 V
8 2 V
9 1 V
8 2 V
8 1 V
9 2 V
8 2 V
9 1 V
8 2 V
8 2 V
9 2 V
8 2 V
9 1 V
8 2 V
8 2 V
9 2 V
8 2 V
9 3 V
8 2 V
8 2 V
9 2 V
8 3 V
9 2 V
8 3 V
8 2 V
9 3 V
8 2 V
8 3 V
9 3 V
8 3 V
9 3 V
8 3 V
8 3 V
9 3 V
8 3 V
9 3 V
8 4 V
8 3 V
9 4 V
8 3 V
9 4 V
8 4 V
8 4 V
9 4 V
8 4 V
9 4 V
8 5 V
8 4 V
9 4 V
8 5 V
8 5 V
9 5 V
8 5 V
9 5 V
8 5 V
8 5 V
9 6 V
8 5 V
9 6 V
8 6 V
8 6 V
9 6 V
8 7 V
9 6 V
8 7 V
8 7 V
9 7 V
8 7 V
9 7 V
8 8 V
8 7 V
9 8 V
8 8 V
8 8 V
9 9 V
8 9 V
9 9 V
8 9 V
8 9 V
9 10 V
8 9 V
9 10 V
8 11 V
8 10 V
9 11 V
8 11 V
9 11 V
8 12 V
8 12 V
9 12 V
8 12 V
8 13 V
9 13 V
8 14 V
9 13 V
8 14 V
8 15 V
9 15 V
8 15 V
9 15 V
8 16 V
8 16 V
9 17 V
8 17 V
9 18 V
8 17 V
8 19 V
9 19 V
8 19 V
9 -138 V
8 -114 V
8 -94 V
9 -79 V
8 -65 V
8 -54 V
9 -45 V
8 -37 V
9 -31 V
8 -25 V
8 -22 V
9 -17 V
8 -15 V
9 -12 V
8 -10 V
8 -8 V
9 -7 V
8 -6 V
9 -5 V
8 -4 V
8 -3 V
9 -3 V
8 -2 V
9 -2 V
8 -1 V
8 -2 V
9 -1 V
8 -1 V
8 0 V
9 -1 V
8 -1 V
currentpoint stroke M
9 0 V
8 0 V
8 -1 V
9 0 V
8 0 V
9 0 V
8 0 V
8 0 V
9 -1 V
8 0 V
9 0 V
LT3
3965 4850 M
(declam) Rshow
4049 4850 M
252 0 V
672 211 M
8 0 V
9 0 V
8 0 V
9 0 V
8 0 V
8 0 V
9 0 V
8 0 V
9 0 V
8 0 V
8 0 V
9 0 V
8 0 V
8 0 V
9 0 V
8 0 V
9 0 V
8 0 V
8 0 V
9 0 V
8 0 V
9 0 V
8 0 V
8 0 V
9 0 V
8 0 V
9 0 V
8 0 V
8 0 V
9 0 V
8 0 V
9 0 V
8 0 V
8 0 V
9 0 V
8 0 V
8 0 V
9 0 V
8 0 V
9 0 V
8 0 V
8 0 V
9 0 V
8 0 V
9 0 V
8 0 V
8 0 V
9 0 V
8 0 V
9 0 V
8 0 V
8 0 V
9 0 V
8 0 V
9 0 V
8 0 V
8 0 V
9 0 V
8 0 V
8 0 V
9 0 V
8 0 V
9 0 V
8 1 V
8 0 V
9 0 V
8 0 V
9 0 V
8 0 V
8 0 V
9 0 V
8 0 V
9 0 V
8 0 V
8 0 V
9 0 V
8 0 V
9 0 V
8 0 V
8 0 V
9 0 V
8 0 V
8 0 V
9 0 V
8 0 V
9 0 V
8 0 V
8 0 V
9 0 V
8 0 V
9 0 V
8 0 V
8 0 V
9 0 V
8 0 V
9 0 V
8 0 V
8 0 V
9 0 V
8 0 V
9 0 V
8 0 V
8 0 V
9 0 V
8 0 V
8 0 V
9 0 V
8 0 V
9 0 V
8 0 V
8 0 V
9 1 V
8 0 V
9 0 V
8 0 V
8 0 V
9 0 V
8 0 V
9 0 V
8 0 V
8 0 V
9 0 V
8 0 V
8 0 V
9 0 V
8 0 V
9 0 V
8 0 V
8 0 V
9 0 V
8 0 V
9 0 V
8 0 V
8 0 V
9 1 V
8 0 V
9 0 V
8 0 V
8 0 V
9 0 V
8 0 V
9 0 V
8 0 V
8 0 V
9 0 V
8 0 V
8 0 V
9 0 V
8 0 V
9 1 V
8 0 V
8 0 V
9 0 V
8 0 V
9 0 V
8 0 V
8 0 V
9 0 V
8 0 V
9 0 V
8 1 V
8 0 V
9 0 V
8 0 V
9 0 V
8 0 V
8 0 V
9 0 V
8 1 V
8 0 V
9 0 V
8 0 V
9 0 V
8 0 V
8 0 V
9 0 V
8 1 V
9 0 V
8 0 V
8 0 V
9 0 V
8 0 V
9 1 V
8 0 V
8 0 V
9 0 V
8 0 V
9 1 V
8 0 V
8 0 V
9 0 V
8 0 V
8 1 V
9 0 V
8 0 V
9 0 V
8 0 V
8 1 V
9 0 V
8 0 V
9 0 V
8 1 V
8 0 V
9 0 V
8 1 V
9 0 V
8 0 V
8 0 V
9 1 V
8 0 V
9 0 V
8 1 V
8 0 V
9 0 V
8 1 V
8 0 V
9 0 V
8 1 V
9 0 V
8 1 V
8 0 V
9 0 V
8 1 V
9 0 V
8 1 V
8 0 V
9 1 V
8 0 V
9 1 V
8 0 V
8 1 V
9 0 V
8 1 V
9 0 V
8 1 V
8 0 V
9 1 V
8 1 V
8 0 V
9 1 V
8 0 V
9 1 V
8 1 V
8 1 V
9 0 V
8 1 V
9 1 V
8 0 V
8 1 V
9 1 V
8 1 V
9 1 V
8 0 V
8 1 V
9 1 V
8 1 V
9 1 V
8 1 V
8 1 V
9 1 V
8 1 V
8 1 V
9 1 V
8 1 V
9 1 V
8 1 V
8 2 V
9 1 V
8 1 V
9 1 V
8 1 V
8 2 V
9 1 V
8 1 V
9 2 V
8 1 V
8 2 V
9 1 V
8 2 V
9 1 V
8 2 V
8 2 V
9 1 V
8 2 V
8 2 V
9 2 V
8 1 V
9 2 V
8 2 V
8 2 V
9 2 V
8 2 V
9 2 V
8 2 V
8 3 V
9 2 V
8 2 V
9 3 V
8 2 V
8 2 V
9 3 V
8 3 V
9 2 V
8 3 V
8 3 V
9 2 V
8 3 V
8 3 V
9 3 V
8 3 V
9 4 V
8 3 V
8 3 V
9 4 V
8 3 V
9 4 V
8 3 V
8 4 V
9 4 V
8 4 V
9 4 V
8 4 V
8 4 V
9 4 V
8 4 V
9 5 V
8 5 V
8 4 V
9 5 V
8 5 V
8 5 V
9 5 V
8 5 V
9 6 V
8 5 V
8 6 V
9 5 V
8 6 V
9 6 V
8 6 V
8 7 V
9 6 V
8 7 V
9 6 V
8 7 V
8 7 V
9 8 V
8 7 V
8 7 V
9 8 V
8 8 V
9 8 V
8 8 V
8 9 V
9 8 V
8 9 V
9 9 V
8 10 V
8 9 V
9 10 V
8 10 V
9 10 V
8 10 V
8 11 V
9 11 V
8 11 V
9 11 V
8 12 V
8 12 V
9 12 V
8 12 V
8 13 V
9 13 V
8 13 V
9 14 V
8 14 V
8 14 V
9 15 V
8 15 V
9 15 V
8 16 V
8 16 V
9 16 V
8 17 V
9 18 V
8 -187 V
8 -141 V
9 -106 V
8 -80 V
9 -61 V
8 -46 V
8 -34 V
9 -26 V
8 -20 V
8 -14 V
9 -12 V
8 -8 V
currentpoint stroke M
9 -6 V
8 -5 V
8 -4 V
9 -3 V
8 -2 V
9 -1 V
8 -1 V
8 -1 V
9 -1 V
8 0 V
9 -1 V
LT4
3965 4710 M
(interiez) Rshow
4049 4710 M
252 0 V
672 223 M
8 0 V
9 0 V
8 0 V
9 1 V
8 0 V
8 0 V
9 1 V
8 0 V
9 0 V
8 0 V
8 1 V
9 0 V
8 0 V
8 1 V
9 0 V
8 0 V
9 1 V
8 0 V
8 1 V
9 0 V
8 0 V
9 1 V
8 0 V
8 1 V
9 0 V
8 0 V
9 1 V
8 0 V
8 1 V
9 0 V
8 1 V
9 0 V
8 1 V
8 0 V
9 1 V
8 0 V
8 1 V
9 0 V
8 1 V
9 0 V
8 1 V
8 1 V
9 0 V
8 1 V
9 1 V
8 0 V
8 1 V
9 1 V
8 0 V
9 1 V
8 1 V
8 0 V
9 1 V
8 1 V
9 1 V
8 1 V
8 0 V
9 1 V
8 1 V
8 1 V
9 1 V
8 1 V
9 1 V
8 1 V
8 1 V
9 1 V
8 1 V
9 1 V
8 1 V
8 1 V
9 1 V
8 1 V
9 1 V
8 2 V
8 1 V
9 1 V
8 1 V
9 2 V
8 1 V
8 1 V
9 2 V
8 1 V
8 2 V
9 1 V
8 2 V
9 1 V
8 2 V
8 1 V
9 2 V
8 2 V
9 1 V
8 2 V
8 2 V
9 2 V
8 2 V
9 2 V
8 2 V
8 2 V
9 2 V
8 2 V
9 2 V
8 2 V
8 2 V
9 2 V
8 3 V
8 2 V
9 3 V
8 2 V
9 3 V
8 2 V
8 3 V
9 2 V
8 3 V
9 3 V
8 3 V
8 3 V
9 3 V
8 3 V
9 3 V
8 3 V
8 3 V
9 4 V
8 3 V
8 4 V
9 3 V
8 4 V
9 4 V
8 3 V
8 4 V
9 4 V
8 4 V
9 4 V
8 5 V
8 4 V
9 4 V
8 5 V
9 4 V
8 5 V
8 5 V
9 5 V
8 5 V
9 5 V
8 5 V
8 5 V
9 6 V
8 5 V
8 6 V
9 6 V
8 6 V
9 6 V
8 6 V
8 6 V
9 7 V
8 6 V
9 7 V
8 7 V
8 7 V
9 7 V
8 7 V
9 8 V
8 8 V
8 7 V
9 8 V
8 8 V
9 9 V
8 8 V
8 9 V
9 9 V
8 9 V
8 9 V
9 10 V
8 9 V
9 10 V
8 10 V
8 11 V
9 10 V
8 11 V
9 11 V
8 11 V
8 12 V
9 11 V
8 12 V
9 13 V
8 12 V
8 13 V
9 13 V
8 13 V
9 14 V
8 14 V
8 14 V
9 14 V
8 15 V
8 15 V
9 16 V
8 16 V
9 16 V
8 16 V
8 17 V
9 17 V
8 18 V
9 18 V
8 18 V
8 19 V
9 19 V
8 20 V
9 20 V
8 20 V
8 21 V
9 21 V
8 22 V
9 22 V
8 23 V
8 23 V
9 24 V
8 24 V
8 25 V
9 25 V
8 26 V
9 26 V
8 27 V
8 28 V
9 28 V
8 28 V
9 30 V
8 30 V
8 30 V
9 31 V
8 32 V
9 33 V
8 33 V
8 34 V
9 35 V
8 36 V
9 36 V
8 37 V
8 38 V
9 39 V
8 39 V
8 41 V
9 41 V
8 42 V
9 43 V
8 44 V
8 45 V
9 46 V
8 47 V
9 48 V
8 49 V
8 50 V
9 51 V
8 52 V
9 53 V
8 55 V
8 55 V
9 57 V
8 58 V
9 59 V
8 61 V
8 62 V
9 63 V
8 65 V
8 65 V
9 68 V
8 69 V
9 70 V
8 72 V
8 73 V
9 75 V
8 77 V
9 78 V
8 80 V
8 82 V
9 83 V
8 85 V
9 87 V
8 89 V
8 91 V
9 93 V
8 -297 V
9 -276 V
8 -258 V
8 -240 V
9 -224 V
8 -209 V
8 -195 V
9 -182 V
8 -169 V
9 -158 V
8 -148 V
8 -137 V
9 -129 V
8 -119 V
9 -112 V
8 -104 V
8 -97 V
9 -91 V
8 -84 V
9 -79 V
8 -73 V
8 -69 V
9 -63 V
8 -60 V
9 -55 V
8 -52 V
8 -49 V
9 -45 V
8 -42 V
8 -39 V
9 -36 V
8 -34 V
9 -32 V
8 -30 V
8 -27 V
9 -26 V
8 -24 V
9 -23 V
8 -21 V
8 -19 V
9 -18 V
8 -17 V
9 -16 V
8 -15 V
8 -14 V
9 -12 V
8 -12 V
9 -12 V
8 -10 V
8 -10 V
9 -9 V
8 -8 V
8 -8 V
9 -7 V
8 -7 V
9 -7 V
8 -6 V
8 -5 V
9 -5 V
8 -5 V
9 -5 V
8 -4 V
8 -4 V
9 -3 V
8 -4 V
9 -3 V
8 -3 V
8 -3 V
9 -2 V
8 -3 V
8 -2 V
9 -2 V
8 -2 V
9 -2 V
8 -2 V
8 -1 V
9 -2 V
8 -1 V
9 -1 V
8 -1 V
8 -2 V
9 -1 V
8 -1 V
9 0 V
8 -1 V
8 -1 V
9 -1 V
8 -1 V
9 0 V
8 -1 V
8 0 V
9 -1 V
8 0 V
8 -1 V
9 0 V
8 -1 V
9 0 V
8 0 V
8 -1 V
9 0 V
8 0 V
9 0 V
8 -1 V
8 0 V
9 0 V
8 0 V
9 0 V
8 -1 V
8 0 V
9 0 V
8 0 V
9 0 V
8 0 V
8 0 V
9 -1 V
8 0 V
8 0 V
9 0 V
8 0 V
currentpoint stroke M
9 0 V
8 0 V
8 0 V
9 0 V
8 0 V
9 0 V
8 0 V
8 0 V
9 0 V
8 0 V
9 0 V
LT5
3965 4570 M
(leggero) Rshow
4049 4570 M
252 0 V
672 485 M
8 2 V
9 1 V
8 2 V
9 1 V
8 2 V
8 1 V
9 2 V
8 1 V
9 2 V
8 1 V
8 2 V
9 1 V
8 2 V
8 2 V
9 1 V
8 2 V
9 1 V
8 2 V
8 2 V
9 1 V
8 2 V
9 1 V
8 2 V
8 2 V
9 1 V
8 2 V
9 2 V
8 1 V
8 2 V
9 2 V
8 2 V
9 1 V
8 2 V
8 2 V
9 2 V
8 1 V
8 2 V
9 2 V
8 2 V
9 2 V
8 1 V
8 2 V
9 2 V
8 2 V
9 2 V
8 2 V
8 1 V
9 2 V
8 2 V
9 2 V
8 2 V
8 2 V
9 2 V
8 2 V
9 2 V
8 2 V
8 2 V
9 2 V
8 2 V
8 2 V
9 2 V
8 2 V
9 2 V
8 2 V
8 2 V
9 2 V
8 2 V
9 2 V
8 2 V
8 2 V
9 3 V
8 2 V
9 2 V
8 2 V
8 2 V
9 2 V
8 3 V
9 2 V
8 2 V
8 2 V
9 2 V
8 3 V
8 2 V
9 2 V
8 3 V
9 2 V
8 2 V
8 3 V
9 2 V
8 2 V
9 3 V
8 2 V
8 2 V
9 3 V
8 2 V
9 3 V
8 2 V
8 3 V
9 2 V
8 2 V
9 3 V
8 3 V
8 2 V
9 3 V
8 2 V
8 3 V
9 2 V
8 3 V
9 2 V
8 3 V
8 3 V
9 2 V
8 3 V
9 3 V
8 2 V
8 3 V
9 3 V
8 3 V
9 2 V
8 3 V
8 3 V
9 3 V
8 2 V
8 3 V
9 3 V
8 3 V
9 3 V
8 3 V
8 3 V
9 3 V
8 3 V
9 2 V
8 3 V
8 3 V
9 3 V
8 3 V
9 3 V
8 3 V
8 4 V
9 3 V
8 3 V
9 3 V
8 3 V
8 3 V
9 3 V
8 3 V
8 4 V
9 3 V
8 3 V
9 3 V
8 4 V
8 3 V
9 3 V
8 3 V
9 4 V
8 3 V
8 3 V
9 4 V
8 3 V
9 4 V
8 3 V
8 4 V
9 3 V
8 4 V
9 3 V
8 4 V
8 3 V
9 4 V
8 3 V
8 4 V
9 4 V
8 3 V
9 4 V
8 4 V
8 3 V
9 4 V
8 4 V
9 4 V
8 3 V
8 4 V
9 4 V
8 4 V
9 4 V
8 4 V
8 3 V
9 4 V
8 4 V
9 4 V
8 4 V
8 4 V
9 4 V
8 4 V
8 5 V
9 4 V
8 4 V
9 4 V
8 4 V
8 4 V
9 4 V
8 5 V
9 4 V
8 4 V
8 5 V
9 4 V
8 4 V
9 5 V
8 4 V
8 4 V
9 5 V
8 4 V
9 5 V
8 4 V
8 5 V
9 4 V
8 5 V
8 5 V
9 4 V
8 5 V
9 5 V
8 4 V
8 5 V
9 5 V
8 5 V
9 4 V
8 5 V
8 5 V
9 5 V
8 5 V
9 5 V
8 5 V
8 5 V
9 5 V
8 5 V
9 5 V
8 5 V
8 5 V
9 5 V
8 6 V
8 5 V
9 5 V
8 5 V
9 6 V
8 5 V
8 5 V
9 6 V
8 5 V
9 6 V
8 5 V
8 -47 V
9 -45 V
8 -43 V
9 -41 V
8 -39 V
8 -37 V
9 -35 V
8 -34 V
9 -32 V
8 -31 V
8 -30 V
9 -28 V
8 -27 V
8 -25 V
9 -25 V
8 -23 V
9 -22 V
8 -21 V
8 -21 V
9 -19 V
8 -19 V
9 -17 V
8 -17 V
8 -16 V
9 -15 V
8 -15 V
9 -14 V
8 -13 V
8 -13 V
9 -12 V
8 -12 V
9 -11 V
8 -10 V
8 -10 V
9 -10 V
8 -9 V
8 -9 V
9 -8 V
8 -8 V
9 -7 V
8 -8 V
8 -7 V
9 -6 V
8 -7 V
9 -6 V
8 -5 V
8 -6 V
9 -5 V
8 -5 V
9 -5 V
8 -4 V
8 -5 V
9 -4 V
8 -4 V
9 -3 V
8 -4 V
8 -3 V
9 -4 V
8 -3 V
8 -3 V
9 -3 V
8 -2 V
9 -3 V
8 -2 V
8 -3 V
9 -2 V
8 -2 V
9 -2 V
8 -2 V
8 -2 V
9 -2 V
8 -1 V
9 -2 V
8 -2 V
8 -1 V
9 -2 V
8 -1 V
9 -1 V
8 -1 V
8 -2 V
9 -1 V
8 -1 V
8 -1 V
9 -1 V
8 -1 V
9 -1 V
8 0 V
8 -1 V
9 -1 V
8 -1 V
9 0 V
8 -1 V
8 -1 V
9 0 V
8 -1 V
9 0 V
8 -1 V
8 0 V
9 -1 V
8 0 V
8 -1 V
9 0 V
8 -1 V
9 0 V
8 0 V
8 -1 V
9 0 V
8 0 V
9 -1 V
8 0 V
8 0 V
9 -1 V
8 0 V
9 0 V
8 0 V
8 0 V
9 -1 V
8 0 V
9 0 V
8 0 V
8 0 V
9 -1 V
8 0 V
8 0 V
9 0 V
8 0 V
9 0 V
8 0 V
8 -1 V
9 0 V
8 0 V
9 0 V
8 0 V
8 0 V
9 0 V
8 0 V
9 0 V
8 0 V
8 0 V
9 -1 V
8 0 V
9 0 V
8 0 V
8 0 V
9 0 V
8 0 V
8 0 V
9 0 V
8 0 V
currentpoint stroke M
9 0 V
8 0 V
8 0 V
9 0 V
8 0 V
9 0 V
8 0 V
8 0 V
9 0 V
8 0 V
9 0 V
LT6
3965 4430 M
(murmuri) Rshow
4049 4430 M
252 0 V
672 1848 M
8 43 V
9 45 V
8 45 V
9 47 V
8 48 V
8 49 V
9 50 V
8 52 V
9 53 V
8 54 V
8 56 V
9 58 V
8 59 V
8 60 V
9 62 V
8 64 V
9 65 V
8 67 V
8 69 V
9 71 V
8 72 V
9 75 V
8 76 V
8 79 V
9 80 V
8 83 V
9 85 V
8 87 V
8 89 V
9 92 V
8 94 V
9 96 V
8 99 V
8 102 V
9 104 V
8 108 V
8 110 V
9 112 V
8 116 V
9 -168 V
8 -39 V
8 -39 V
9 -38 V
8 -38 V
9 -37 V
8 -37 V
8 -37 V
9 -37 V
8 -36 V
9 -36 V
8 -36 V
8 -35 V
9 -35 V
8 -34 V
9 -35 V
8 -34 V
8 -33 V
9 -34 V
8 -33 V
8 -33 V
9 -32 V
8 -33 V
9 -31 V
8 -32 V
8 -31 V
9 -32 V
8 -30 V
9 -31 V
8 -30 V
8 -30 V
9 -30 V
8 -29 V
9 -29 V
8 -29 V
8 -29 V
9 -28 V
8 -29 V
9 -28 V
8 -27 V
8 -28 V
9 -27 V
8 -27 V
8 -26 V
9 -27 V
8 -26 V
9 -26 V
8 -26 V
8 -25 V
9 -25 V
8 -26 V
9 -24 V
8 -25 V
8 -24 V
9 -24 V
8 -24 V
9 -24 V
8 -24 V
8 -23 V
9 -23 V
8 -23 V
9 -23 V
8 -22 V
8 -22 V
9 -23 V
8 -21 V
8 -22 V
9 -22 V
8 -21 V
9 -21 V
8 -21 V
8 -21 V
9 -20 V
8 -21 V
9 -20 V
8 -20 V
8 -20 V
9 -19 V
8 -20 V
9 -19 V
8 -19 V
8 -19 V
9 -19 V
8 -18 V
8 -19 V
9 -18 V
8 -18 V
9 -18 V
8 -18 V
8 -18 V
9 -17 V
8 -17 V
9 -18 V
8 -17 V
8 -16 V
9 -17 V
8 -17 V
9 -16 V
8 -16 V
8 -16 V
9 -16 V
8 -16 V
9 -16 V
8 -16 V
8 -15 V
9 -15 V
8 -15 V
8 -15 V
9 -15 V
8 -15 V
9 -15 V
8 -14 V
8 -14 V
9 -15 V
8 -14 V
9 -14 V
8 -13 V
8 -14 V
9 -14 V
8 -13 V
9 -13 V
8 -14 V
8 -13 V
9 -13 V
8 -13 V
9 -12 V
8 -13 V
8 -13 V
9 -12 V
8 -12 V
8 -12 V
9 -13 V
8 -12 V
9 -11 V
8 -12 V
8 -12 V
9 -11 V
8 -12 V
9 -11 V
8 -11 V
8 -12 V
9 -11 V
8 -11 V
9 -10 V
8 -11 V
8 -11 V
9 -10 V
8 -11 V
9 -10 V
8 -10 V
8 -11 V
9 -10 V
8 -10 V
8 -10 V
9 -9 V
8 -10 V
9 -10 V
8 -9 V
8 -10 V
9 -9 V
8 -10 V
9 -9 V
8 -9 V
8 -9 V
9 -9 V
8 -9 V
9 -9 V
8 -8 V
8 -9 V
9 -9 V
8 -8 V
9 -9 V
8 -8 V
8 -8 V
9 -8 V
8 -9 V
8 -8 V
9 -8 V
8 -8 V
9 -7 V
8 -8 V
8 -8 V
9 -7 V
8 -8 V
9 -8 V
8 -7 V
8 -7 V
9 -8 V
8 -7 V
9 -7 V
8 -7 V
8 -7 V
9 -7 V
8 -7 V
9 -7 V
8 -7 V
8 -6 V
9 -7 V
8 -7 V
8 -6 V
9 -7 V
8 -6 V
9 -7 V
8 -6 V
8 -6 V
9 -6 V
8 -7 V
9 -6 V
8 -6 V
8 -6 V
9 -6 V
8 -5 V
9 -6 V
8 -6 V
8 -6 V
9 -5 V
8 -6 V
9 -6 V
8 -5 V
8 -6 V
9 -5 V
8 -5 V
8 -6 V
9 -5 V
8 -5 V
9 -5 V
8 -6 V
8 -5 V
9 -5 V
8 -5 V
9 -5 V
8 -5 V
8 -5 V
9 -4 V
8 -5 V
9 -5 V
8 -5 V
8 -4 V
9 -5 V
8 -4 V
9 -5 V
8 -4 V
8 -5 V
9 -4 V
8 -5 V
8 -4 V
9 -4 V
8 -5 V
9 -4 V
8 -4 V
8 -4 V
9 -4 V
8 -4 V
9 -4 V
8 -4 V
8 -4 V
9 -4 V
8 -4 V
9 -4 V
8 -4 V
8 -3 V
9 -4 V
8 -4 V
9 -4 V
8 -3 V
8 -4 V
9 -3 V
8 -4 V
8 -4 V
9 -3 V
8 -3 V
9 -4 V
8 -3 V
8 -4 V
9 -3 V
8 -3 V
9 -4 V
8 -3 V
8 -3 V
9 -3 V
8 -3 V
9 -4 V
8 -3 V
8 -3 V
9 -3 V
8 -3 V
9 -3 V
8 -3 V
8 -3 V
9 -3 V
8 -2 V
8 -3 V
9 -3 V
8 -3 V
9 -3 V
8 -3 V
8 -2 V
9 -3 V
8 -3 V
9 -2 V
8 -3 V
8 -3 V
9 -2 V
8 -3 V
9 -2 V
8 -3 V
8 -2 V
9 -3 V
8 -2 V
8 -3 V
9 -2 V
8 -3 V
9 -2 V
8 -2 V
8 -3 V
9 -2 V
8 -2 V
9 -2 V
8 -3 V
8 -2 V
9 -2 V
8 -2 V
9 -2 V
8 -3 V
8 -2 V
9 -2 V
8 -2 V
9 -2 V
8 -2 V
8 -2 V
9 -2 V
8 -2 V
8 -2 V
9 -2 V
8 -2 V
9 -2 V
8 -2 V
8 -2 V
9 -2 V
8 -1 V
9 -2 V
8 -2 V
8 -2 V
9 -2 V
8 -1 V
9 -2 V
8 -2 V
8 -2 V
9 -1 V
8 -2 V
9 -2 V
8 -1 V
8 -2 V
9 -2 V
8 -1 V
8 -2 V
9 -2 V
8 -1 V
currentpoint stroke M
9 -2 V
8 -1 V
8 -2 V
9 -1 V
8 -2 V
9 -1 V
8 -2 V
8 -1 V
9 -2 V
8 -1 V
9 -2 V
LT7
3965 4290 M
(rock) Rshow
4049 4290 M
252 0 V
672 211 M
8 0 V
9 0 V
8 0 V
9 0 V
8 0 V
8 0 V
9 0 V
8 0 V
9 0 V
8 0 V
8 0 V
9 0 V
8 0 V
8 0 V
9 0 V
8 0 V
9 0 V
8 0 V
8 0 V
9 0 V
8 0 V
9 0 V
8 0 V
8 0 V
9 0 V
8 0 V
9 0 V
8 0 V
8 0 V
9 0 V
8 0 V
9 0 V
8 0 V
8 0 V
9 0 V
8 0 V
8 0 V
9 0 V
8 0 V
9 0 V
8 0 V
8 0 V
9 0 V
8 0 V
9 0 V
8 0 V
8 0 V
9 0 V
8 0 V
9 0 V
8 1 V
8 0 V
9 0 V
8 0 V
9 0 V
8 0 V
8 0 V
9 0 V
8 0 V
8 0 V
9 0 V
8 0 V
9 0 V
8 0 V
8 0 V
9 0 V
8 0 V
9 0 V
8 0 V
8 0 V
9 0 V
8 0 V
9 0 V
8 0 V
8 0 V
9 0 V
8 0 V
9 0 V
8 0 V
8 0 V
9 0 V
8 0 V
8 0 V
9 0 V
8 0 V
9 0 V
8 0 V
8 0 V
9 1 V
8 0 V
9 0 V
8 0 V
8 0 V
9 0 V
8 0 V
9 0 V
8 0 V
8 0 V
9 0 V
8 0 V
9 0 V
8 0 V
8 0 V
9 0 V
8 0 V
8 0 V
9 1 V
8 0 V
9 0 V
8 0 V
8 0 V
9 0 V
8 0 V
9 0 V
8 0 V
8 0 V
9 0 V
8 0 V
9 1 V
8 0 V
8 0 V
9 0 V
8 0 V
8 0 V
9 0 V
8 0 V
9 1 V
8 0 V
8 0 V
9 0 V
8 0 V
9 0 V
8 0 V
8 1 V
9 0 V
8 0 V
9 0 V
8 0 V
8 0 V
9 1 V
8 0 V
9 0 V
8 0 V
8 0 V
9 1 V
8 0 V
8 0 V
9 0 V
8 1 V
9 0 V
8 0 V
8 0 V
9 1 V
8 0 V
9 0 V
8 0 V
8 1 V
9 0 V
8 0 V
9 1 V
8 0 V
8 0 V
9 1 V
8 0 V
9 1 V
8 0 V
8 0 V
9 1 V
8 0 V
8 1 V
9 0 V
8 1 V
9 0 V
8 1 V
8 0 V
9 1 V
8 0 V
9 1 V
8 0 V
8 1 V
9 0 V
8 1 V
9 1 V
8 0 V
8 1 V
9 1 V
8 0 V
9 1 V
8 1 V
8 1 V
9 1 V
8 0 V
8 1 V
9 1 V
8 1 V
9 1 V
8 1 V
8 1 V
9 1 V
8 1 V
9 1 V
8 1 V
8 1 V
9 2 V
8 1 V
9 1 V
8 1 V
8 2 V
9 1 V
8 1 V
9 2 V
8 1 V
8 2 V
9 1 V
8 2 V
8 2 V
9 1 V
8 2 V
9 2 V
8 2 V
8 2 V
9 2 V
8 2 V
9 2 V
8 2 V
8 2 V
9 3 V
8 2 V
9 2 V
8 3 V
8 2 V
9 3 V
8 3 V
9 3 V
8 3 V
8 2 V
9 4 V
8 3 V
8 3 V
9 3 V
8 4 V
9 3 V
8 4 V
8 4 V
9 3 V
8 4 V
9 4 V
8 5 V
8 4 V
9 4 V
8 5 V
9 5 V
8 4 V
8 5 V
9 6 V
8 5 V
9 5 V
8 6 V
8 6 V
9 5 V
8 7 V
8 6 V
9 6 V
8 7 V
9 7 V
8 7 V
8 7 V
9 7 V
8 8 V
9 8 V
8 8 V
8 9 V
9 8 V
8 9 V
9 9 V
8 9 V
8 10 V
9 10 V
8 10 V
9 11 V
8 11 V
8 11 V
9 11 V
8 12 V
8 12 V
9 13 V
8 13 V
9 13 V
8 14 V
8 14 V
9 14 V
8 15 V
9 15 V
8 16 V
8 16 V
9 17 V
8 17 V
9 18 V
8 18 V
8 19 V
9 19 V
8 20 V
9 20 V
8 21 V
8 22 V
9 22 V
8 23 V
8 -56 V
9 -52 V
8 -49 V
9 -45 V
8 -42 V
8 -39 V
9 -36 V
8 -34 V
9 -31 V
8 -30 V
8 -27 V
9 -25 V
8 -24 V
9 -22 V
8 -20 V
8 -19 V
9 -18 V
8 -17 V
9 -15 V
8 -14 V
8 -13 V
9 -13 V
8 -11 V
8 -11 V
9 -10 V
8 -9 V
9 -9 V
8 -8 V
8 -8 V
9 -6 V
8 -7 V
9 -6 V
8 -6 V
8 -5 V
9 -5 V
8 -4 V
9 -4 V
8 -4 V
8 -4 V
9 -3 V
8 -4 V
8 -3 V
9 -2 V
8 -3 V
9 -2 V
8 -2 V
8 -2 V
9 -2 V
8 -2 V
9 -2 V
8 -1 V
8 -2 V
9 -1 V
8 -1 V
9 -1 V
8 -2 V
8 -1 V
9 0 V
8 -1 V
9 -1 V
8 -1 V
8 -1 V
9 0 V
8 -1 V
8 0 V
9 -1 V
8 0 V
9 -1 V
8 0 V
8 -1 V
9 0 V
8 0 V
9 -1 V
8 0 V
8 0 V
9 -1 V
8 0 V
9 0 V
8 0 V
8 0 V
9 -1 V
8 0 V
9 0 V
8 0 V
8 0 V
9 0 V
8 0 V
8 -1 V
9 0 V
8 0 V
currentpoint stroke M
9 0 V
8 0 V
8 0 V
9 0 V
8 0 V
9 0 V
8 0 V
8 0 V
9 0 V
8 0 V
9 0 V
LT8
3965 4150 M
(scat) Rshow
4049 4150 M
252 0 V
672 884 M
8 5 V
9 5 V
8 5 V
9 6 V
8 5 V
8 5 V
9 6 V
8 5 V
9 6 V
8 5 V
8 6 V
9 6 V
8 5 V
8 6 V
9 6 V
8 6 V
9 6 V
8 5 V
8 6 V
9 6 V
8 6 V
9 7 V
8 6 V
8 6 V
9 6 V
8 6 V
9 7 V
8 6 V
8 7 V
9 6 V
8 7 V
9 6 V
8 7 V
8 6 V
9 7 V
8 7 V
8 7 V
9 7 V
8 7 V
9 7 V
8 7 V
8 7 V
9 7 V
8 7 V
9 7 V
8 8 V
8 7 V
9 8 V
8 7 V
9 8 V
8 7 V
8 8 V
9 8 V
8 8 V
9 7 V
8 8 V
8 8 V
9 8 V
8 8 V
8 9 V
9 8 V
8 8 V
9 8 V
8 9 V
8 8 V
9 9 V
8 9 V
9 8 V
8 9 V
8 9 V
9 9 V
8 9 V
9 9 V
8 9 V
8 9 V
9 9 V
8 9 V
9 10 V
8 9 V
8 10 V
9 9 V
8 10 V
8 10 V
9 10 V
8 9 V
9 10 V
8 10 V
8 11 V
9 10 V
8 10 V
9 10 V
8 11 V
8 10 V
9 11 V
8 11 V
9 10 V
8 11 V
8 11 V
9 11 V
8 11 V
9 11 V
8 12 V
8 11 V
9 12 V
8 11 V
8 12 V
9 11 V
8 12 V
9 12 V
8 12 V
8 12 V
9 12 V
8 13 V
9 12 V
8 12 V
8 13 V
9 13 V
8 12 V
9 13 V
8 13 V
8 13 V
9 13 V
8 14 V
8 13 V
9 13 V
8 14 V
9 14 V
8 13 V
8 14 V
9 14 V
8 14 V
9 14 V
8 15 V
8 14 V
9 15 V
8 14 V
9 15 V
8 15 V
8 15 V
9 15 V
8 15 V
9 16 V
8 15 V
8 16 V
9 15 V
8 16 V
8 16 V
9 16 V
8 16 V
9 17 V
8 16 V
8 17 V
9 16 V
8 17 V
9 -74 V
8 -71 V
8 -70 V
9 -66 V
8 -65 V
9 -62 V
8 -60 V
8 -58 V
9 -57 V
8 -54 V
9 -53 V
8 -50 V
8 -49 V
9 -48 V
8 -46 V
8 -44 V
9 -43 V
8 -41 V
9 -40 V
8 -38 V
8 -38 V
9 -36 V
8 -34 V
9 -34 V
8 -33 V
8 -31 V
9 -30 V
8 -30 V
9 -28 V
8 -27 V
8 -27 V
9 -25 V
8 -25 V
9 -24 V
8 -23 V
8 -22 V
9 -22 V
8 -21 V
8 -20 V
9 -19 V
8 -19 V
9 -18 V
8 -18 V
8 -17 V
9 -16 V
8 -16 V
9 -15 V
8 -15 V
8 -14 V
9 -14 V
8 -13 V
9 -13 V
8 -13 V
8 -12 V
9 -11 V
8 -12 V
9 -11 V
8 -10 V
8 -10 V
9 -10 V
8 -9 V
8 -10 V
9 -8 V
8 -9 V
9 -8 V
8 -8 V
8 -8 V
9 -7 V
8 -8 V
9 -6 V
8 -7 V
8 -7 V
9 -6 V
8 -6 V
9 -6 V
8 -6 V
8 -5 V
9 -5 V
8 -5 V
9 -5 V
8 -5 V
8 -5 V
9 -4 V
8 -4 V
8 -5 V
9 -4 V
8 -4 V
9 -3 V
8 -4 V
8 -3 V
9 -4 V
8 -3 V
9 -3 V
8 -3 V
8 -3 V
9 -3 V
8 -3 V
9 -3 V
8 -2 V
8 -3 V
9 -2 V
8 -2 V
9 -3 V
8 -2 V
8 -2 V
9 -2 V
8 -2 V
8 -2 V
9 -2 V
8 -1 V
9 -2 V
8 -2 V
8 -1 V
9 -2 V
8 -1 V
9 -2 V
8 -1 V
8 -1 V
9 -2 V
8 -1 V
9 -1 V
8 -1 V
8 -2 V
9 -1 V
8 -1 V
9 -1 V
8 -1 V
8 -1 V
9 -1 V
8 0 V
8 -1 V
9 -1 V
8 -1 V
9 -1 V
8 0 V
8 -1 V
9 -1 V
8 -1 V
9 0 V
8 -1 V
8 0 V
9 -1 V
8 -1 V
9 0 V
8 -1 V
8 0 V
9 -1 V
8 0 V
9 -1 V
8 0 V
8 -1 V
9 0 V
8 0 V
8 -1 V
9 0 V
8 -1 V
9 0 V
8 0 V
8 -1 V
9 0 V
8 0 V
9 0 V
8 -1 V
8 0 V
9 0 V
8 -1 V
9 0 V
8 0 V
8 0 V
9 -1 V
8 0 V
9 0 V
8 0 V
8 0 V
9 -1 V
8 0 V
8 0 V
9 0 V
8 0 V
9 0 V
8 -1 V
8 0 V
9 0 V
8 0 V
9 0 V
8 0 V
8 0 V
9 0 V
8 -1 V
9 0 V
8 0 V
8 0 V
9 0 V
8 0 V
8 0 V
9 0 V
8 0 V
9 -1 V
8 0 V
8 0 V
9 0 V
8 0 V
9 0 V
8 0 V
8 0 V
9 0 V
8 0 V
9 0 V
8 0 V
8 0 V
9 0 V
8 0 V
9 -1 V
8 0 V
8 0 V
9 0 V
8 0 V
8 0 V
9 0 V
8 0 V
9 0 V
8 0 V
8 0 V
9 0 V
8 0 V
9 0 V
8 0 V
8 0 V
9 0 V
8 0 V
9 0 V
8 0 V
8 0 V
9 0 V
8 0 V
9 0 V
8 0 V
8 0 V
9 0 V
8 0 V
8 0 V
9 0 V
8 0 V
currentpoint stroke M
9 0 V
8 -1 V
8 0 V
9 0 V
8 0 V
9 0 V
8 0 V
8 0 V
9 0 V
8 0 V
9 0 V
LT0
3965 4010 M
(sprech) Rshow
4049 4010 M
252 0 V
672 884 M
8 5 V
9 5 V
8 5 V
9 6 V
8 5 V
8 5 V
9 6 V
8 5 V
9 6 V
8 5 V
8 6 V
9 6 V
8 5 V
8 6 V
9 6 V
8 6 V
9 6 V
8 5 V
8 6 V
9 6 V
8 6 V
9 7 V
8 6 V
8 6 V
9 6 V
8 6 V
9 7 V
8 6 V
8 7 V
9 6 V
8 7 V
9 6 V
8 7 V
8 6 V
9 7 V
8 7 V
8 7 V
9 7 V
8 7 V
9 7 V
8 7 V
8 7 V
9 7 V
8 7 V
9 7 V
8 8 V
8 7 V
9 8 V
8 7 V
9 8 V
8 7 V
8 8 V
9 8 V
8 8 V
9 7 V
8 8 V
8 8 V
9 8 V
8 8 V
8 9 V
9 8 V
8 8 V
9 8 V
8 9 V
8 8 V
9 9 V
8 9 V
9 8 V
8 9 V
8 9 V
9 9 V
8 9 V
9 9 V
8 9 V
8 9 V
9 9 V
8 9 V
9 10 V
8 9 V
8 10 V
9 9 V
8 10 V
8 10 V
9 10 V
8 9 V
9 10 V
8 10 V
8 11 V
9 10 V
8 10 V
9 10 V
8 11 V
8 10 V
9 11 V
8 11 V
9 10 V
8 11 V
8 11 V
9 11 V
8 11 V
9 11 V
8 12 V
8 11 V
9 12 V
8 11 V
8 12 V
9 11 V
8 12 V
9 12 V
8 12 V
8 12 V
9 12 V
8 13 V
9 12 V
8 12 V
8 13 V
9 13 V
8 12 V
9 13 V
8 13 V
8 13 V
9 13 V
8 14 V
8 13 V
9 13 V
8 14 V
9 14 V
8 13 V
8 14 V
9 14 V
8 14 V
9 14 V
8 15 V
8 14 V
9 15 V
8 14 V
9 15 V
8 15 V
8 15 V
9 15 V
8 15 V
9 16 V
8 15 V
8 16 V
9 15 V
8 16 V
8 16 V
9 16 V
8 16 V
9 17 V
8 16 V
8 17 V
9 16 V
8 17 V
9 -74 V
8 -71 V
8 -70 V
9 -66 V
8 -65 V
9 -62 V
8 -60 V
8 -58 V
9 -57 V
8 -54 V
9 -53 V
8 -50 V
8 -49 V
9 -48 V
8 -46 V
8 -44 V
9 -43 V
8 -41 V
9 -40 V
8 -38 V
8 -38 V
9 -36 V
8 -34 V
9 -34 V
8 -33 V
8 -31 V
9 -30 V
8 -30 V
9 -28 V
8 -27 V
8 -27 V
9 -25 V
8 -25 V
9 -24 V
8 -23 V
8 -22 V
9 -22 V
8 -21 V
8 -20 V
9 -19 V
8 -19 V
9 -18 V
8 -18 V
8 -17 V
9 -16 V
8 -16 V
9 -15 V
8 -15 V
8 -14 V
9 -14 V
8 -13 V
9 -13 V
8 -13 V
8 -12 V
9 -11 V
8 -12 V
9 -11 V
8 -10 V
8 -10 V
9 -10 V
8 -9 V
8 -10 V
9 -8 V
8 -9 V
9 -8 V
8 -8 V
8 -8 V
9 -7 V
8 -8 V
9 -6 V
8 -7 V
8 -7 V
9 -6 V
8 -6 V
9 -6 V
8 -6 V
8 -5 V
9 -5 V
8 -5 V
9 -5 V
8 -5 V
8 -5 V
9 -4 V
8 -4 V
8 -5 V
9 -4 V
8 -4 V
9 -3 V
8 -4 V
8 -3 V
9 -4 V
8 -3 V
9 -3 V
8 -3 V
8 -3 V
9 -3 V
8 -3 V
9 -3 V
8 -2 V
8 -3 V
9 -2 V
8 -2 V
9 -3 V
8 -2 V
8 -2 V
9 -2 V
8 -2 V
8 -2 V
9 -2 V
8 -1 V
9 -2 V
8 -2 V
8 -1 V
9 -2 V
8 -1 V
9 -2 V
8 -1 V
8 -1 V
9 -2 V
8 -1 V
9 -1 V
8 -1 V
8 -2 V
9 -1 V
8 -1 V
9 -1 V
8 -1 V
8 -1 V
9 -1 V
8 0 V
8 -1 V
9 -1 V
8 -1 V
9 -1 V
8 0 V
8 -1 V
9 -1 V
8 -1 V
9 0 V
8 -1 V
8 0 V
9 -1 V
8 -1 V
9 0 V
8 -1 V
8 0 V
9 -1 V
8 0 V
9 -1 V
8 0 V
8 -1 V
9 0 V
8 0 V
8 -1 V
9 0 V
8 -1 V
9 0 V
8 0 V
8 -1 V
9 0 V
8 0 V
9 0 V
8 -1 V
8 0 V
9 0 V
8 -1 V
9 0 V
8 0 V
8 0 V
9 -1 V
8 0 V
9 0 V
8 0 V
8 0 V
9 -1 V
8 0 V
8 0 V
9 0 V
8 0 V
9 0 V
8 -1 V
8 0 V
9 0 V
8 0 V
9 0 V
8 0 V
8 0 V
9 0 V
8 -1 V
9 0 V
8 0 V
8 0 V
9 0 V
8 0 V
8 0 V
9 0 V
8 0 V
9 -1 V
8 0 V
8 0 V
9 0 V
8 0 V
9 0 V
8 0 V
8 0 V
9 0 V
8 0 V
9 0 V
8 0 V
8 0 V
9 0 V
8 0 V
9 -1 V
8 0 V
8 0 V
9 0 V
8 0 V
8 0 V
9 0 V
8 0 V
9 0 V
8 0 V
8 0 V
9 0 V
8 0 V
9 0 V
8 0 V
8 0 V
9 0 V
8 0 V
9 0 V
8 0 V
8 0 V
9 0 V
8 0 V
9 0 V
8 0 V
8 0 V
9 0 V
8 0 V
8 0 V
9 0 V
8 0 V
currentpoint stroke M
9 0 V
8 -1 V
8 0 V
9 0 V
8 0 V
9 0 V
8 0 V
8 0 V
9 0 V
8 0 V
9 0 V
LT1
3965 3870 M
(squarcia) Rshow
4049 3870 M
252 0 V
672 211 M
8 0 V
9 0 V
8 0 V
9 0 V
8 0 V
8 0 V
9 0 V
8 0 V
9 0 V
8 0 V
8 0 V
9 0 V
8 0 V
8 0 V
9 0 V
8 0 V
9 0 V
8 0 V
8 0 V
9 0 V
8 0 V
9 0 V
8 0 V
8 0 V
9 0 V
8 0 V
9 0 V
8 0 V
8 0 V
9 0 V
8 0 V
9 0 V
8 0 V
8 0 V
9 0 V
8 0 V
8 0 V
9 0 V
8 0 V
9 0 V
8 0 V
8 0 V
9 0 V
8 0 V
9 0 V
8 0 V
8 0 V
9 0 V
8 0 V
9 0 V
8 0 V
8 0 V
9 0 V
8 0 V
9 0 V
8 1 V
8 0 V
9 0 V
8 0 V
8 0 V
9 0 V
8 0 V
9 0 V
8 0 V
8 0 V
9 0 V
8 0 V
9 0 V
8 0 V
8 0 V
9 0 V
8 0 V
9 0 V
8 0 V
8 0 V
9 0 V
8 0 V
9 0 V
8 0 V
8 0 V
9 0 V
8 0 V
8 0 V
9 0 V
8 0 V
9 0 V
8 0 V
8 0 V
9 0 V
8 0 V
9 0 V
8 0 V
8 0 V
9 0 V
8 0 V
9 0 V
8 0 V
8 0 V
9 1 V
8 0 V
9 0 V
8 0 V
8 0 V
9 0 V
8 0 V
8 0 V
9 0 V
8 0 V
9 0 V
8 0 V
8 0 V
9 0 V
8 0 V
9 0 V
8 0 V
8 0 V
9 0 V
8 1 V
9 0 V
8 0 V
8 0 V
9 0 V
8 0 V
8 0 V
9 0 V
8 0 V
9 0 V
8 0 V
8 0 V
9 0 V
8 1 V
9 0 V
8 0 V
8 0 V
9 0 V
8 0 V
9 0 V
8 0 V
8 0 V
9 0 V
8 1 V
9 0 V
8 0 V
8 0 V
9 0 V
8 0 V
8 0 V
9 0 V
8 1 V
9 0 V
8 0 V
8 0 V
9 0 V
8 0 V
9 1 V
8 0 V
8 0 V
9 0 V
8 0 V
9 1 V
8 0 V
8 0 V
9 0 V
8 0 V
9 1 V
8 0 V
8 0 V
9 0 V
8 0 V
8 1 V
9 0 V
8 0 V
9 1 V
8 0 V
8 0 V
9 0 V
8 1 V
9 0 V
8 0 V
8 1 V
9 0 V
8 0 V
9 1 V
8 0 V
8 0 V
9 1 V
8 0 V
9 1 V
8 0 V
8 0 V
9 1 V
8 0 V
8 1 V
9 0 V
8 1 V
9 0 V
8 1 V
8 0 V
9 1 V
8 0 V
9 1 V
8 0 V
8 1 V
9 1 V
8 0 V
9 1 V
8 1 V
8 0 V
9 1 V
8 1 V
9 0 V
8 1 V
8 1 V
9 1 V
8 0 V
8 1 V
9 1 V
8 1 V
9 1 V
8 1 V
8 1 V
9 1 V
8 1 V
9 1 V
8 1 V
8 1 V
9 1 V
8 1 V
9 1 V
8 1 V
8 2 V
9 1 V
8 1 V
9 1 V
8 2 V
8 1 V
9 2 V
8 1 V
8 2 V
9 1 V
8 2 V
9 1 V
8 2 V
8 2 V
9 2 V
8 1 V
9 2 V
8 2 V
8 2 V
9 2 V
8 2 V
9 2 V
8 2 V
8 3 V
9 2 V
8 2 V
9 3 V
8 2 V
8 3 V
9 2 V
8 3 V
8 3 V
9 2 V
8 3 V
9 3 V
8 3 V
8 3 V
9 4 V
8 3 V
9 3 V
8 4 V
8 3 V
9 4 V
8 4 V
9 4 V
8 3 V
8 5 V
9 4 V
8 4 V
9 4 V
8 5 V
8 4 V
9 5 V
8 5 V
8 5 V
9 5 V
8 5 V
9 6 V
8 5 V
8 6 V
9 6 V
8 6 V
9 6 V
8 6 V
8 7 V
9 6 V
8 7 V
9 7 V
8 7 V
8 8 V
9 7 V
8 8 V
9 8 V
8 8 V
8 8 V
9 9 V
8 9 V
8 9 V
9 9 V
8 10 V
9 9 V
8 11 V
8 10 V
9 10 V
8 11 V
9 11 V
8 12 V
8 12 V
9 12 V
8 12 V
9 13 V
8 13 V
8 13 V
9 14 V
8 14 V
9 15 V
8 14 V
8 16 V
9 15 V
8 16 V
8 17 V
9 17 V
8 17 V
9 18 V
8 18 V
8 19 V
9 19 V
8 20 V
9 20 V
8 21 V
8 22 V
9 22 V
8 22 V
9 -96 V
8 -86 V
8 -76 V
9 -68 V
8 -60 V
8 -54 V
9 -48 V
8 -43 V
9 -38 V
8 -34 V
8 -30 V
9 -26 V
8 -24 V
9 -22 V
8 -18 V
8 -17 V
9 -15 V
8 -14 V
9 -11 V
8 -11 V
8 -9 V
9 -9 V
8 -7 V
9 -7 V
8 -6 V
8 -5 V
9 -5 V
8 -4 V
8 -4 V
9 -3 V
8 -3 V
9 -3 V
8 -2 V
8 -2 V
9 -2 V
8 -2 V
9 -1 V
8 -1 V
8 -2 V
9 -1 V
8 -1 V
9 0 V
8 -1 V
8 -1 V
9 0 V
8 -1 V
9 0 V
8 -1 V
8 0 V
9 0 V
8 -1 V
8 0 V
9 0 V
8 0 V
currentpoint stroke M
9 -1 V
8 0 V
8 0 V
9 0 V
8 0 V
9 0 V
8 0 V
8 0 V
9 0 V
8 0 V
9 -1 V
LT2
3965 3730 M
(sussurri) Rshow
4049 3730 M
252 0 V
672 3135 M
8 68 V
9 70 V
8 71 V
9 73 V
8 75 V
8 76 V
9 78 V
8 80 V
9 82 V
8 83 V
8 86 V
9 88 V
8 89 V
8 92 V
9 94 V
8 96 V
9 98 V
8 101 V
8 103 V
9 421 V
8 -112 V
9 -110 V
8 -108 V
8 -105 V
9 -102 V
8 -101 V
9 -98 V
8 -95 V
8 -94 V
9 -92 V
8 -89 V
9 -87 V
8 -86 V
8 -83 V
9 -82 V
8 -79 V
8 -78 V
9 -76 V
8 -75 V
9 -72 V
8 -71 V
8 -70 V
9 -68 V
8 -66 V
9 -65 V
8 -63 V
8 -62 V
9 -60 V
8 -59 V
9 -58 V
8 -57 V
8 -55 V
9 -54 V
8 -52 V
9 -52 V
8 -50 V
8 -49 V
9 -48 V
8 -47 V
8 -46 V
9 -45 V
8 -44 V
9 -43 V
8 -41 V
8 -41 V
9 -40 V
8 -39 V
9 -38 V
8 -38 V
8 -36 V
9 -36 V
8 -35 V
9 -34 V
8 -33 V
8 -32 V
9 -32 V
8 -31 V
9 -31 V
8 -29 V
8 -29 V
9 -28 V
8 -28 V
8 -27 V
9 -27 V
8 -25 V
9 -26 V
8 -24 V
8 -24 V
9 -24 V
8 -23 V
9 -22 V
8 -22 V
8 -22 V
9 -21 V
8 -20 V
9 -20 V
8 -20 V
8 -19 V
9 -19 V
8 -18 V
9 -18 V
8 -17 V
8 -18 V
9 -16 V
8 -17 V
8 -15 V
9 -16 V
8 -15 V
9 -15 V
8 -15 V
8 -14 V
9 -14 V
8 -13 V
9 -13 V
8 -13 V
8 -13 V
9 -12 V
8 -13 V
9 -11 V
8 -12 V
8 -11 V
9 -11 V
8 -11 V
8 -11 V
9 -10 V
8 -10 V
9 -10 V
8 -9 V
8 -10 V
9 -9 V
8 -9 V
9 -9 V
8 -8 V
8 -8 V
9 -9 V
8 -8 V
9 -7 V
8 -8 V
8 -8 V
9 -7 V
8 -7 V
9 -7 V
8 -7 V
8 -6 V
9 -7 V
8 -6 V
8 -6 V
9 -6 V
8 -6 V
9 -6 V
8 -6 V
8 -5 V
9 -6 V
8 -5 V
9 -5 V
8 -5 V
8 -5 V
9 -5 V
8 -5 V
9 -4 V
8 -5 V
8 -4 V
9 -4 V
8 -5 V
9 -4 V
8 -4 V
8 -4 V
9 -4 V
8 -3 V
8 -4 V
9 -3 V
8 -4 V
9 -3 V
8 -4 V
8 -3 V
9 -3 V
8 -3 V
9 -3 V
8 -3 V
8 -3 V
9 -3 V
8 -3 V
9 -3 V
8 -2 V
8 -3 V
9 -2 V
8 -3 V
9 -2 V
8 -3 V
8 -2 V
9 -2 V
8 -2 V
8 -2 V
9 -3 V
8 -2 V
9 -2 V
8 -2 V
8 -2 V
9 -1 V
8 -2 V
9 -2 V
8 -2 V
8 -1 V
9 -2 V
8 -2 V
9 -1 V
8 -2 V
8 -1 V
9 -2 V
8 -1 V
9 -2 V
8 -1 V
8 -2 V
9 -1 V
8 -1 V
8 -1 V
9 -2 V
8 -1 V
9 -1 V
8 -1 V
8 -1 V
9 -1 V
8 -2 V
9 -1 V
8 -1 V
8 -1 V
9 -1 V
8 -1 V
9 -1 V
8 0 V
8 -1 V
9 -1 V
8 -1 V
9 -1 V
8 -1 V
8 -1 V
9 0 V
8 -1 V
8 -1 V
9 -1 V
8 0 V
9 -1 V
8 -1 V
8 0 V
9 -1 V
8 -1 V
9 0 V
8 -1 V
8 0 V
9 -1 V
8 -1 V
9 0 V
8 -1 V
8 0 V
9 -1 V
8 0 V
9 -1 V
8 0 V
8 -1 V
9 0 V
8 -1 V
8 0 V
9 0 V
8 -1 V
9 0 V
8 -1 V
8 0 V
9 -1 V
8 0 V
9 0 V
8 -1 V
8 0 V
9 0 V
8 -1 V
9 0 V
8 0 V
8 -1 V
9 0 V
8 0 V
9 0 V
8 -1 V
8 0 V
9 0 V
8 -1 V
8 0 V
9 0 V
8 0 V
9 -1 V
8 0 V
8 0 V
9 0 V
8 -1 V
9 0 V
8 0 V
8 0 V
9 0 V
8 -1 V
9 0 V
8 0 V
8 0 V
9 0 V
8 0 V
9 -1 V
8 0 V
8 0 V
9 0 V
8 0 V
8 0 V
9 -1 V
8 0 V
9 0 V
8 0 V
8 0 V
9 0 V
8 0 V
9 -1 V
8 0 V
8 0 V
9 0 V
8 0 V
9 0 V
8 0 V
8 0 V
9 0 V
8 -1 V
9 0 V
8 0 V
8 0 V
9 0 V
8 0 V
8 0 V
9 0 V
8 0 V
9 0 V
8 0 V
8 -1 V
9 0 V
8 0 V
9 0 V
8 0 V
8 0 V
9 0 V
8 0 V
9 0 V
8 0 V
8 0 V
9 0 V
8 0 V
8 0 V
9 0 V
8 -1 V
9 0 V
8 0 V
8 0 V
9 0 V
8 0 V
9 0 V
8 0 V
8 0 V
9 0 V
8 0 V
9 0 V
8 0 V
8 0 V
9 0 V
8 0 V
9 0 V
8 0 V
8 0 V
9 0 V
8 0 V
8 0 V
9 -1 V
8 0 V
9 0 V
8 0 V
8 0 V
9 0 V
8 0 V
9 0 V
8 0 V
8 0 V
9 0 V
8 0 V
9 0 V
8 0 V
8 0 V
9 0 V
8 0 V
9 0 V
8 0 V
8 0 V
9 0 V
8 0 V
8 0 V
9 0 V
8 0 V
currentpoint stroke M
9 0 V
8 0 V
8 0 V
9 0 V
8 0 V
9 0 V
8 0 V
8 0 V
9 0 V
8 0 V
9 0 V
stroke
grestore
end
showpage
%%Trailer
%%Pages: 1
