# $Id$
set term postscript landscape color 22
set size 1,1
set data style lines
set ytics ("sussurrato" 0, "mormorato" 1, "difonico" 2, "pigmeo" 3,\
	"medievale" 4, "scat" 5, "sprachgesang" 6, "crooning" 7,\
	"interiezioni" 8, "rock" 9, "a distesa" 10, "belcanto" 11,\
	"declamato" 12)
set noxzeroaxis
set noborder
set format y "%20s"
#set ylabel "frammenti" -5
plot [-10:420][-1:15] "frags.database.out" title "frammenti", \
	 "frags.database.mean" title "media" with lines, \
	 "frags.database.sigma" title "scarto quadratico medio" with lines
# $Log$
