%!PS-Adobe-2.0
%%Creator: gnuplot
%%DocumentFonts: Helvetica
%%BoundingBox: 50 50 482 529
%%Pages: (atend)
%%EndComments
/gnudict 40 dict def
gnudict begin
/Color true def
/Solid false def
/gnulinewidth 5.000 def
/vshift -46 def
/dl {10 mul} def
/hpt 31.5 def
/vpt 31.5 def
/M {moveto} bind def
/L {lineto} bind def
/R {rmoveto} bind def
/V {rlineto} bind def
/vpt2 vpt 2 mul def
/hpt2 hpt 2 mul def
/Lshow { currentpoint stroke M
  0 vshift R show } def
/Rshow { currentpoint stroke M
  dup stringwidth pop neg vshift R show } def
/Cshow { currentpoint stroke M
  dup stringwidth pop -2 div vshift R show } def
/DL { Color {setrgbcolor Solid {pop []} if 0 setdash }
 {pop pop pop Solid {pop []} if 0 setdash} ifelse } def
/BL { stroke gnulinewidth 2 mul setlinewidth } def
/AL { stroke gnulinewidth 2 div setlinewidth } def
/PL { stroke gnulinewidth setlinewidth } def
/LTb { BL [] 0 0 0 DL } def
/LTa { AL [1 dl 2 dl] 0 setdash 0 0 0 setrgbcolor } def
/LT0 { PL [] 0 1 0 DL } def
/LT1 { PL [4 dl 2 dl] 0 0 1 DL } def
/LT2 { PL [2 dl 3 dl] 1 0 0 DL } def
/LT3 { PL [1 dl 1.5 dl] 1 0 1 DL } def
/LT4 { PL [5 dl 2 dl 1 dl 2 dl] 0 1 1 DL } def
/LT5 { PL [4 dl 3 dl 1 dl 3 dl] 1 1 0 DL } def
/LT6 { PL [2 dl 2 dl 2 dl 4 dl] 0 0 0 DL } def
/LT7 { PL [2 dl 2 dl 2 dl 2 dl 2 dl 4 dl] 1 0.3 0 DL } def
/LT8 { PL [2 dl 2 dl 2 dl 2 dl 2 dl 2 dl 2 dl 4 dl] 0.5 0.5 0.5 DL } def
/P { stroke [] 0 setdash
  currentlinewidth 2 div sub M
  0 currentlinewidth V stroke } def
/D { stroke [] 0 setdash 2 copy vpt add M
  hpt neg vpt neg V hpt vpt neg V
  hpt vpt V hpt neg vpt V closepath stroke
  P } def
/A { stroke [] 0 setdash vpt sub M 0 vpt2 V
  currentpoint stroke M
  hpt neg vpt neg R hpt2 0 V stroke
  } def
/B { stroke [] 0 setdash 2 copy exch hpt sub exch vpt add M
  0 vpt2 neg V hpt2 0 V 0 vpt2 V
  hpt2 neg 0 V closepath stroke
  P } def
/C { stroke [] 0 setdash exch hpt sub exch vpt add M
  hpt2 vpt2 neg V currentpoint stroke M
  hpt2 neg 0 R hpt2 vpt2 V stroke } def
/T { stroke [] 0 setdash 2 copy vpt 1.12 mul add M
  hpt neg vpt -1.62 mul V
  hpt 2 mul 0 V
  hpt neg vpt 1.62 mul V closepath stroke
  P  } def
/S { 2 copy A C} def
end
%%EndProlog
%%Page: 1 1
gnudict begin
gsave
50 50 translate
0.100 0.100 scale
0 setgray
/Helvetica findfont 140 scalefont setfont
newpath
LTa
916 211 M
0 4505 V
LTb
840 493 M
63 0 V
3186 0 R
-63 0 V
756 493 M
(sussurrato) Rshow
840 774 M
63 0 V
3186 0 R
-63 0 V
756 774 M
(mormorato) Rshow
840 1056 M
63 0 V
3186 0 R
-63 0 V
-3270 0 R
(difonico) Rshow
840 1337 M
63 0 V
3186 0 R
-63 0 V
-3270 0 R
(pigmeo) Rshow
840 1619 M
63 0 V
3186 0 R
-63 0 V
-3270 0 R
(medievale) Rshow
840 1900 M
63 0 V
3186 0 R
-63 0 V
-3270 0 R
(scat) Rshow
840 2182 M
63 0 V
3186 0 R
-63 0 V
-3270 0 R
(sprachgesang) Rshow
840 2464 M
63 0 V
3186 0 R
-63 0 V
-3270 0 R
(crooning) Rshow
840 2745 M
63 0 V
3186 0 R
-63 0 V
-3270 0 R
(interiezioni) Rshow
840 3027 M
63 0 V
3186 0 R
-63 0 V
-3270 0 R
(rock) Rshow
840 3308 M
63 0 V
3186 0 R
-63 0 V
-3270 0 R
(a distesa) Rshow
840 3590 M
63 0 V
3186 0 R
-63 0 V
-3270 0 R
(belcanto) Rshow
840 3871 M
63 0 V
3186 0 R
-63 0 V
-3270 0 R
(declamato) Rshow
916 211 M
0 63 V
0 4442 R
0 -63 V
916 71 M
(0) Cshow
1293 211 M
0 63 V
0 4442 R
0 -63 V
1293 71 M
(50) Cshow
1671 211 M
0 63 V
0 4442 R
0 -63 V
1671 71 M
(100) Cshow
2049 211 M
0 63 V
0 4442 R
0 -63 V
2049 71 M
(150) Cshow
2427 211 M
0 63 V
0 4442 R
0 -63 V
2427 71 M
(200) Cshow
2805 211 M
0 63 V
0 4442 R
0 -63 V
2805 71 M
(250) Cshow
3182 211 M
0 63 V
0 4442 R
0 -63 V
3182 71 M
(300) Cshow
3560 211 M
0 63 V
0 4442 R
0 -63 V
3560 71 M
(350) Cshow
3938 211 M
0 63 V
0 4442 R
0 -63 V
3938 71 M
(400) Cshow
-280 2463 M
currentpoint gsave translate 90 rotate 0 0 M
(frammenti) Cshow
grestore
LT0
3606 4513 M
(frammenti) Rshow
3690 4513 M
252 0 V
916 493 M
7 281 V
8 282 V
7 -563 V
8 844 V
7 282 V
961 493 L
7 281 V
8 -281 V
8 563 V
7 -563 V
8 1407 V
7 -1407 V
8 281 V
7 563 V
8 282 V
7 -563 V
8 -563 V
8 1689 V
7 -1689 V
8 281 V
7 1126 V
8 -844 V
7 -563 V
8 844 V
7 -844 V
8 1126 V
8 -1126 V
7 1689 V
8 282 V
7 -1971 V
8 1407 V
7 -844 V
8 -563 V
7 844 V
8 282 V
8 -1126 V
7 281 V
8 1408 V
7 -1408 V
8 -281 V
7 1407 V
8 -844 V
7 -563 V
8 281 V
8 845 V
7 -1126 V
8 281 V
7 1971 V
8 -563 V
7 -1689 V
8 281 V
7 282 V
8 844 V
8 -844 V
7 563 V
8 -1126 V
7 281 V
8 1408 V
7 282 V
8 -1971 V
7 281 V
8 282 V
8 844 V
7 -563 V
8 282 V
7 -1126 V
8 563 V
7 1126 V
8 282 V
7 -1971 V
8 281 V
8 282 V
7 844 V
8 -563 V
7 282 V
8 -1126 V
7 1971 V
8 281 V
7 282 V
8 -2534 V
8 281 V
7 282 V
8 844 V
7 -563 V
8 282 V
7 845 V
8 281 V
7 -563 V
8 -845 V
8 -281 V
7 -282 V
8 563 V
7 563 V
8 -563 V
7 282 V
8 845 V
7 281 V
8 -563 V
8 -845 V
7 -563 V
8 282 V
7 563 V
8 281 V
7 -563 V
8 282 V
7 845 V
8 281 V
8 -563 V
7 -845 V
8 -563 V
7 282 V
8 563 V
7 281 V
8 -563 V
7 282 V
8 845 V
8 281 V
7 -563 V
8 845 V
7 -2253 V
8 282 V
7 844 V
8 -281 V
7 -282 V
8 1127 V
8 -845 V
7 1126 V
8 -563 V
7 -563 V
8 -845 V
7 1126 V
8 1408 V
7 -2252 V
8 281 V
8 282 V
7 845 V
8 281 V
7 -563 V
8 -563 V
7 -845 V
8 282 V
7 2252 V
8 -1408 V
8 -563 V
7 282 V
8 845 V
7 281 V
8 -563 V
7 845 V
8 -2253 V
7 282 V
8 1408 V
8 -564 V
7 -563 V
8 282 V
7 1126 V
8 -563 V
7 -282 V
8 1127 V
7 -2253 V
8 282 V
8 2252 V
7 -1408 V
8 -563 V
7 282 V
8 845 V
7 281 V
8 -563 V
7 845 V
8 -2253 V
8 282 V
7 2252 V
8 -1408 V
7 -563 V
8 282 V
7 845 V
8 281 V
7 -563 V
8 845 V
8 -2253 V
7 282 V
8 2252 V
7 -1408 V
8 -563 V
7 1127 V
8 281 V
7 -563 V
8 1408 V
8 -563 V
7 -2253 V
8 282 V
7 2252 V
8 -1408 V
7 -563 V
8 282 V
7 845 V
8 281 V
8 -563 V
7 845 V
8 -845 V
7 -1126 V
8 2252 V
7 -1408 V
8 -563 V
8 1127 V
7 281 V
8 845 V
7 -1408 V
8 845 V
7 -2253 V
8 2534 V
7 -1126 V
8 -282 V
8 -563 V
7 282 V
8 845 V
7 281 V
8 -563 V
7 845 V
8 -563 V
7 281 V
8 845 V
8 -563 V
7 844 V
8 -3097 V
7 282 V
8 2252 V
7 -1126 V
8 -845 V
7 282 V
8 845 V
8 281 V
7 282 V
8 844 V
7 -2534 V
8 1127 V
7 -282 V
8 1126 V
7 -1408 V
8 564 V
8 281 V
7 -563 V
8 1408 V
7 -1126 V
8 563 V
7 281 V
8 -844 V
7 1407 V
8 -2534 V
8 -281 V
7 2252 V
8 -1408 V
7 564 V
8 281 V
7 -563 V
8 1408 V
7 -1126 V
8 563 V
8 844 V
7 -2815 V
8 2252 V
7 -1689 V
8 845 V
7 281 V
8 -563 V
7 1408 V
8 -1126 V
8 563 V
7 844 V
8 -563 V
7 -1408 V
8 -563 V
7 1408 V
8 -281 V
7 -282 V
8 1408 V
8 -845 V
7 282 V
8 844 V
7 -1407 V
8 281 V
7 845 V
8 -563 V
7 -845 V
8 1689 V
8 -844 V
7 -1971 V
8 2252 V
7 -1408 V
8 -563 V
7 1408 V
8 845 V
7 -563 V
8 844 V
8 -281 V
7 -563 V
8 844 V
7 -1689 V
8 1126 V
7 282 V
8 -563 V
7 844 V
8 -1971 V
8 1408 V
7 282 V
8 -563 V
7 844 V
8 -1126 V
7 282 V
8 844 V
7 -563 V
8 282 V
8 -563 V
7 844 V
8 -1407 V
7 844 V
8 282 V
7 -563 V
8 -282 V
7 563 V
8 282 V
8 -563 V
7 844 V
8 -1126 V
7 563 V
8 282 V
7 -563 V
8 844 V
7 -2534 V
8 563 V
8 1408 V
7 282 V
8 -563 V
7 844 V
8 -1126 V
7 563 V
8 282 V
7 281 V
8 -1689 V
8 1408 V
7 281 V
8 -563 V
7 -563 V
8 282 V
7 281 V
8 282 V
7 281 V
8 -1689 V
8 1126 V
7 282 V
8 281 V
7 -844 V
8 -282 V
7 563 V
8 282 V
7 -1971 V
8 2252 V
8 -1689 V
7 282 V
8 844 V
7 282 V
8 281 V
7 -1126 V
8 563 V
7 282 V
8 281 V
8 -844 V
7 563 V
8 281 V
7 -563 V
8 282 V
7 281 V
8 -1971 V
7 1690 V
8 281 V
8 -844 V
7 563 V
8 281 V
7 -1126 V
8 845 V
7 281 V
8 -563 V
7 563 V
8 -1689 V
8 1408 V
7 281 V
8 -844 V
7 563 V
8 281 V
7 -281 V
8 281 V
7 -1407 V
8 1126 V
8 281 V
7 -1126 V
8 1126 V
7 -844 V
currentpoint stroke M
8 844 V
7 -563 V
8 282 V
7 281 V
LT1
3606 4373 M
(media) Rshow
3690 4373 M
252 0 V
916 493 M
7 140 V
8 141 V
7 -70 V
8 126 V
7 132 V
8 -67 V
7 -15 V
8 -43 V
8 22 V
7 -34 V
8 90 V
7 -33 V
8 -7 V
7 31 V
8 44 V
7 6 V
8 -25 V
8 65 V
7 -25 V
8 -9 V
7 42 V
8 3 V
7 -22 V
8 14 V
7 -19 V
8 24 V
8 -19 V
7 42 V
8 47 V
7 -18 V
8 26 V
7 -1 V
8 -17 V
7 8 V
8 15 V
8 -16 V
7 -8 V
8 29 V
7 -8 V
8 -15 V
7 20 V
8 -1 V
7 -13 V
8 -7 V
8 12 V
7 -12 V
8 -6 V
7 34 V
8 22 V
7 -13 V
8 -6 V
7 -1 V
8 15 V
8 -1 V
7 9 V
8 -11 V
7 -6 V
8 18 V
7 23 V
8 -11 V
7 -6 V
8 -1 V
8 12 V
7 3 V
8 8 V
7 -10 V
8 -1 V
7 15 V
8 18 V
7 -9 V
8 -6 V
8 -1 V
7 10 V
8 2 V
7 6 V
8 -9 V
7 17 V
8 20 V
7 23 V
8 -9 V
8 -6 V
7 -2 V
8 9 V
7 1 V
8 5 V
7 14 V
8 17 V
7 10 V
8 1 V
8 -2 V
7 -5 V
8 1 V
7 6 V
8 1 V
7 4 V
8 12 V
7 15 V
8 9 V
8 0 V
7 -5 V
8 -2 V
7 3 V
8 5 V
7 1 V
8 3 V
7 10 V
8 14 V
8 7 V
7 0 V
8 -5 V
7 -2 V
8 2 V
7 5 V
8 0 V
7 3 V
8 9 V
8 12 V
7 7 V
8 14 V
7 -6 V
8 -2 V
7 4 V
8 2 V
7 0 V
8 8 V
8 2 V
7 10 V
8 6 V
7 2 V
8 -5 V
7 4 V
8 14 V
7 -3 V
8 0 V
8 1 V
7 8 V
8 9 V
7 6 V
8 1 V
7 -5 V
8 -3 V
7 13 V
8 4 V
8 -1 V
7 1 V
8 7 V
7 8 V
8 5 V
7 10 V
8 -4 V
7 -3 V
8 6 V
8 3 V
7 -1 V
8 1 V
7 8 V
8 4 V
7 3 V
8 9 V
7 -4 V
8 -3 V
8 11 V
7 2 V
8 -1 V
7 1 V
8 5 V
7 8 V
8 4 V
7 8 V
8 -4 V
8 -3 V
7 10 V
8 2 V
7 -1 V
8 0 V
7 6 V
8 6 V
7 4 V
8 8 V
8 -5 V
7 -2 V
8 9 V
7 2 V
8 -1 V
7 4 V
8 7 V
7 3 V
8 10 V
8 8 V
7 -4 V
8 -3 V
7 9 V
8 1 V
7 -1 V
8 0 V
7 4 V
8 6 V
8 3 V
7 7 V
8 2 V
7 -2 V
8 8 V
7 1 V
8 -1 V
8 4 V
7 5 V
8 9 V
7 3 V
8 6 V
7 -4 V
8 8 V
7 2 V
8 1 V
8 -1 V
7 0 V
8 3 V
7 5 V
8 3 V
7 6 V
8 3 V
7 5 V
8 8 V
8 6 V
7 10 V
8 -4 V
7 -3 V
8 7 V
7 2 V
8 -2 V
7 0 V
8 3 V
8 4 V
7 6 V
8 9 V
7 -2 V
8 3 V
7 2 V
8 7 V
7 0 V
8 3 V
8 4 V
7 2 V
8 8 V
7 3 V
8 5 V
7 6 V
8 3 V
7 8 V
8 -2 V
8 -3 V
7 6 V
8 1 V
7 2 V
8 4 V
7 1 V
8 7 V
7 3 V
8 5 V
8 8 V
7 -3 V
8 5 V
7 0 V
8 2 V
7 3 V
8 2 V
7 6 V
8 3 V
8 4 V
7 7 V
8 6 V
7 0 V
8 -2 V
7 3 V
8 3 V
7 1 V
8 6 V
8 3 V
7 4 V
8 7 V
7 2 V
8 3 V
7 6 V
8 4 V
7 1 V
8 7 V
8 4 V
7 -3 V
8 5 V
7 0 V
8 -2 V
7 3 V
8 6 V
7 3 V
8 7 V
8 6 V
7 3 V
8 7 V
7 0 V
8 5 V
7 5 V
8 4 V
7 6 V
8 0 V
8 4 V
7 6 V
8 3 V
7 6 V
8 3 V
7 3 V
8 6 V
7 4 V
8 5 V
8 4 V
7 6 V
8 1 V
7 4 V
8 5 V
7 3 V
8 2 V
7 4 V
8 5 V
8 3 V
7 6 V
8 2 V
7 4 V
8 5 V
7 2 V
8 6 V
7 -2 V
8 -1 V
8 4 V
7 5 V
8 2 V
7 6 V
8 2 V
7 3 V
8 5 V
7 5 V
8 0 V
8 5 V
7 5 V
8 3 V
7 2 V
8 3 V
7 3 V
8 5 V
7 5 V
8 0 V
8 3 V
7 4 V
8 5 V
7 3 V
8 1 V
7 4 V
8 4 V
7 -2 V
8 5 V
8 0 V
7 1 V
8 3 V
7 4 V
8 5 V
7 1 V
8 3 V
7 4 V
8 5 V
8 2 V
7 4 V
8 5 V
7 3 V
8 3 V
7 5 V
8 -1 V
7 4 V
8 4 V
8 2 V
7 4 V
8 4 V
7 2 V
8 3 V
7 5 V
8 2 V
7 5 V
8 0 V
8 3 V
7 4 V
8 2 V
7 4 V
8 4 V
7 3 V
8 4 V
7 1 V
8 3 V
8 4 V
7 2 V
8 4 V
7 1 V
currentpoint stroke M
8 4 V
7 3 V
8 3 V
7 4 V
LT2
3606 4233 M
(scarto quadratico medio) Rshow
3690 4233 M
252 0 V
916 493 M
7 99 V
8 82 V
7 8 V
8 94 V
7 89 V
8 4 V
7 -22 V
8 -1 V
8 -12 V
7 -1 V
8 92 V
7 -3 V
8 -15 V
7 1 V
8 20 V
7 -12 V
8 1 V
8 70 V
7 -1 V
8 -10 V
7 26 V
8 -11 V
7 0 V
8 -6 V
7 0 V
8 5 V
8 0 V
7 36 V
8 50 V
7 -1 V
8 9 V
7 -9 V
8 -1 V
7 -6 V
8 -1 V
8 0 V
7 -6 V
8 19 V
7 -5 V
8 0 V
7 6 V
8 -7 V
7 0 V
8 -4 V
8 -1 V
7 0 V
8 -5 V
7 41 V
8 13 V
7 -1 V
8 -4 V
7 -6 V
8 4 V
8 -6 V
7 -2 V
8 0 V
7 -3 V
8 10 V
7 18 V
8 0 V
7 -3 V
8 -5 V
8 2 V
7 -4 V
8 -2 V
7 0 V
8 -4 V
7 7 V
8 15 V
7 0 V
8 -3 V
8 -4 V
7 1 V
8 -4 V
7 -2 V
8 1 V
7 12 V
8 20 V
7 26 V
8 0 V
8 -2 V
7 -4 V
8 0 V
7 -4 V
8 -3 V
7 9 V
8 14 V
7 3 V
8 -4 V
8 -3 V
7 -2 V
8 -4 V
7 0 V
8 -4 V
7 -3 V
8 7 V
7 12 V
8 2 V
8 -3 V
7 -2 V
8 -3 V
7 -2 V
8 -1 V
7 -4 V
8 -2 V
7 6 V
8 10 V
8 1 V
7 -3 V
8 -1 V
7 -3 V
8 -3 V
7 -1 V
8 -3 V
7 -2 V
8 5 V
8 8 V
7 1 V
8 13 V
7 -1 V
8 -2 V
7 -1 V
8 -3 V
7 -3 V
8 4 V
8 -3 V
7 8 V
8 0 V
7 -2 V
8 -1 V
7 -1 V
8 16 V
7 -2 V
8 -3 V
8 -3 V
7 3 V
8 6 V
7 0 V
8 -2 V
7 -1 V
8 -1 V
7 14 V
8 -2 V
8 -2 V
7 -3 V
8 2 V
7 5 V
8 0 V
7 8 V
8 0 V
7 -1 V
8 1 V
8 -1 V
7 -3 V
8 -2 V
7 4 V
8 0 V
7 -2 V
8 8 V
7 0 V
8 -2 V
8 11 V
7 -2 V
8 -2 V
7 -2 V
8 1 V
7 4 V
8 -1 V
7 6 V
8 0 V
8 -1 V
7 10 V
8 -2 V
7 -2 V
8 -2 V
7 1 V
8 3 V
7 -1 V
8 5 V
8 1 V
7 -2 V
8 9 V
7 -2 V
8 -2 V
7 1 V
8 2 V
7 -1 V
8 12 V
8 4 V
7 1 V
8 -1 V
7 7 V
8 -2 V
7 -2 V
8 -2 V
7 1 V
8 2 V
8 -1 V
7 4 V
8 -1 V
7 -1 V
8 6 V
7 -1 V
8 -2 V
8 0 V
7 2 V
8 9 V
7 -1 V
8 3 V
7 1 V
8 5 V
7 -1 V
8 -2 V
8 -1 V
7 -2 V
8 0 V
7 1 V
8 -1 V
7 3 V
8 0 V
7 1 V
8 8 V
8 3 V
7 10 V
8 1 V
7 -1 V
8 5 V
7 -1 V
8 -2 V
7 -2 V
8 0 V
8 1 V
7 2 V
8 10 V
7 -1 V
8 -1 V
7 -1 V
8 4 V
7 -2 V
8 0 V
8 0 V
7 -1 V
8 6 V
7 0 V
8 2 V
7 3 V
8 0 V
7 8 V
8 -1 V
8 -1 V
7 4 V
8 -2 V
7 -1 V
8 1 V
7 -2 V
8 6 V
7 -1 V
8 1 V
8 8 V
7 -1 V
8 4 V
7 -2 V
8 -1 V
7 0 V
8 -1 V
7 5 V
8 -1 V
8 1 V
7 7 V
8 3 V
7 -2 V
8 -1 V
7 0 V
8 -1 V
7 -1 V
8 4 V
8 0 V
7 1 V
8 6 V
7 -1 V
8 0 V
7 4 V
8 1 V
7 -1 V
8 5 V
8 1 V
7 0 V
8 2 V
7 -1 V
8 -1 V
7 -1 V
8 4 V
7 1 V
8 5 V
8 4 V
7 0 V
8 5 V
7 -1 V
8 2 V
7 3 V
8 0 V
7 5 V
8 -1 V
8 1 V
7 3 V
8 1 V
7 4 V
8 0 V
7 0 V
8 4 V
7 2 V
8 2 V
8 1 V
7 4 V
8 -1 V
7 1 V
8 2 V
7 0 V
8 0 V
7 1 V
8 2 V
8 0 V
7 4 V
8 -1 V
7 1 V
8 3 V
7 0 V
8 3 V
7 0 V
8 -2 V
8 1 V
7 2 V
8 0 V
7 4 V
8 -1 V
7 1 V
8 2 V
7 3 V
8 -2 V
8 2 V
7 3 V
8 1 V
7 -1 V
8 0 V
7 1 V
8 1 V
7 3 V
8 -1 V
8 1 V
7 1 V
8 3 V
7 0 V
8 -1 V
7 0 V
8 2 V
7 -1 V
8 3 V
8 -2 V
7 -1 V
8 0 V
7 2 V
8 2 V
7 0 V
8 0 V
7 1 V
8 3 V
8 -1 V
7 2 V
8 2 V
7 0 V
8 2 V
7 2 V
8 -1 V
7 1 V
8 2 V
8 0 V
7 1 V
8 2 V
7 -1 V
8 1 V
7 2 V
8 0 V
7 3 V
8 -2 V
8 1 V
7 2 V
8 0 V
7 1 V
8 2 V
7 1 V
8 1 V
7 -1 V
8 1 V
8 2 V
7 -1 V
8 2 V
7 -1 V
currentpoint stroke M
8 2 V
7 0 V
8 1 V
7 1 V
stroke
grestore
end
showpage
%%Trailer
%%Pages: 1
